file=suppliedInput/fromQianying/13tev-pth_quarkInduced_Apr18/higgs_plus_jet_13tev_1_m5.pth
kappab=1.0
kappac=-5.0
muR=1.0
muF=1.0
Q=1.0
binBoundaries=0.0,5.0,10.0,15.0,20.0,25.0,30.0,35.0,40.0,45.0,50.0,55.0,60.0,65.0,70.0,75.0,80.0,85.0,90.0,95.0,100.0,105.0,110.0,115.0,120.0
binCenters=3.0,7.5,12.5,17.5,22.5,27.5,32.5,37.5,42.5,47.5,52.5,57.5,62.5,67.5,72.5,77.5,82.5,87.5,92.5,97.5,102.5,107.5,112.5,117.5
crosssection=0.585040716,1.087523598847628,1.2089808955027965,1.100659316786711,0.8913223280486106,0.7195473724403534,0.5842346535001934,0.47167044904526406,0.38528597019153626,0.31726944259531137,0.26470744945249786,0.22570188080157047,0.19524785354457008,0.1697014640100454,0.14780818992189398,0.12923363423438605,0.11436208750553051,0.10116100390035611,0.08944027937122712,0.07926333905651547,0.07098258577833205,0.0632528039045659,0.05676530623618233,0.05087229955515395
crosssection_integrated=2.92520358,5.43761799423814,6.044904477513983,5.503296583933555,4.456611640243053,3.597736862201767,2.921173267500967,2.35835224522632,1.9264298509576814,1.5863472129765568,1.3235372472624893,1.1285094040078523,0.9762392677228504,0.848507320050227,0.7390409496094699,0.6461681711719303,0.5718104375276525,0.5058050195017806,0.4472013968561356,0.3963166952825774,0.35491292889166026,0.3162640195228295,0.28382653118091167,0.2543614977757698
ratios=1.109920302,1.111370570405181,1.1234590852961186,1.1124748974889607,1.0777020577166354,1.0583942692484671,1.0507501062094753,1.0416904964675122,1.0392437392734255,1.0353302976355803,1.0306781667908744,1.0282188432996655,1.028008243123061,1.019744691665525,1.0216531900362407,1.0178658839947767,1.0170379767191926,1.0183041510784234,1.0165755009903343,1.014078647780741,1.0162345742380199,1.0111957795360533,1.0109220877631178,1.0091891832523847