file=suppliedInput/fromQianying/13tev-pth_quarkInduced_Apr18/higgs_plus_jet_13tev_2_0.pth
kappab=2.0
kappac=0.0
muR=1.0
muF=1.0
Q=1.0
binBoundaries=0.0,5.0,10.0,15.0,20.0,25.0,30.0,35.0,40.0,45.0,50.0,55.0,60.0,65.0,70.0,75.0,80.0,85.0,90.0,95.0,100.0,105.0,110.0,115.0,120.0
binCenters=3.0,7.5,12.5,17.5,22.5,27.5,32.5,37.5,42.5,47.5,52.5,57.5,62.5,67.5,72.5,77.5,82.5,87.5,92.5,97.5,102.5,107.5,112.5,117.5
crosssection=0.478525923,0.9200169660173209,1.0798884811184342,1.0482725708205876,0.8663603623447294,0.7071661232252826,0.5791803463007016,0.4685042423095644,0.3830629679355013,0.316788184657833,0.2646790323276303,0.22604530830348013,0.19537812569549393,0.17059540610872098,0.14850432565761473,0.12974269110082914,0.1155756114642649,0.10227109147340503,0.09035314441277426,0.07994058635020289,0.07185806049309121,0.06411535486053332,0.05756760547135671,0.05156289626063575
crosssection_integrated=2.392629615,4.600084830086605,5.399442405592171,5.241362854102938,4.331801811723647,3.535830616126413,2.895901731503508,2.342521211547822,1.9153148396775066,1.5839409232891648,1.3233951616381514,1.1302265415174007,0.9768906284774697,0.8529770305436049,0.7425216282880737,0.6487134555041457,0.5778780573213245,0.5113554573670251,0.4517657220638713,0.39970293175101446,0.359290302465456,0.3205767743026666,0.28783802735678354,0.25781448130317874
ratios=0.90784388581,0.9401908900078707,1.0034985083156134,1.0595257796651238,1.0475204264961755,1.04018248262082,1.041659899398113,1.0346978865359255,1.0332475666751173,1.0337598314741587,1.030567520451965,1.0297833789052915,1.0286941448759759,1.0251164350096296,1.0264648942826233,1.0218753016702553,1.0278300143481998,1.0294784844688842,1.0269510973488345,1.022743208572282,1.0287684607434762,1.0249850162570848,1.0252100758250278,1.0228890303451303