file=suppliedInput/fromQianying/13tev-pth_quarkInduced_Apr18/higgs_plus_jet_13tev_1_1_mur025_muf050.pth
kappab=1.0
kappac=1.0
muR=0.5
muF=1.0
Q=1.0
binBoundaries=0.0,5.0,10.0,15.0,20.0,25.0,30.0,35.0,40.0,45.0,50.0,55.0,60.0,65.0,70.0,75.0,80.0,85.0,90.0,95.0,100.0,105.0,110.0,115.0,120.0
binCenters=3.0,7.5,12.5,17.5,22.5,27.5,32.5,37.5,42.5,47.5,52.5,57.5,62.5,67.5,72.5,77.5,82.5,87.5,92.5,97.5,102.5,107.5,112.5,117.5
crosssection=0.49027992,0.8329879662825753,0.9765919100959353,0.9828387679020413,0.8753605897698665,0.7570882717552284,0.645550825810627,0.5435756348371763,0.45620974726924035,0.38326695592879206,0.3238055591421138,0.2759630043489295,0.2360642800614641,0.20578040204386255,0.1790270881183575,0.15734425968998134,0.13876501610431635,0.12258862730797963,0.10840538374838407,0.09615087394818149,0.08578528016109911,0.07657194117132202,0.06854893855158907,0.06131531013819921
crosssection_integrated=2.4513996,4.164939831412877,4.882959550479677,4.914193839510206,4.376802948849333,3.785441358776142,3.227754129053135,2.7178781741858815,2.281048736346202,1.9163347796439603,1.619027795710569,1.3798150217446477,1.1803214003073206,1.0289020102193127,0.8951354405917875,0.7867212984499067,0.6938250805215818,0.6129431365398982,0.5420269187419203,0.48075436974090746,0.42892640080549554,0.3828597058566101,0.34274469275794534,0.30657655069099604
ratios=0.930143188309,0.8512535380465106,0.9075090087074339,0.9933895446976705,1.0584026441976253,1.1136138061672696,1.1610276705092881,1.2004940611974655,1.2305486322519739,1.2506968471646414,1.2607855229747809,1.2571909463821467,1.2429126436194047,1.2365448575069735,1.237438844056412,1.2392699077887028,1.2340566204802368,1.2339983120934803,1.2321323017861119,1.2301342511799402,1.2281599311223672,1.2241231844859697,1.22077446012874,1.216354446335754