file=suppliedInput/fromQianying/13tev-pth_quarkInduced_Apr18/higgs_plus_jet_13tev_m2_0.pth
kappab=-2.0
kappac=0.0
muR=1.0
muF=1.0
Q=1.0
binBoundaries=0.0,5.0,10.0,15.0,20.0,25.0,30.0,35.0,40.0,45.0,50.0,55.0,60.0,65.0,70.0,75.0,80.0,85.0,90.0,95.0,100.0,105.0,110.0,115.0,120.0
binCenters=3.0,7.5,12.5,17.5,22.5,27.5,32.5,37.5,42.5,47.5,52.5,57.5,62.5,67.5,72.5,77.5,82.5,87.5,92.5,97.5,102.5,107.5,112.5,117.5
crosssection=0.765859044,1.3878661090346869,1.3635933147085297,1.2023603947994008,0.9563456558039561,0.760716690875204,0.607270559064898,0.48984511523323715,0.3974253470977145,0.3259652338559284,0.2722519139563298,0.22958516039142976,0.19870210638621488,0.17060830356023615,0.14914771554664025,0.1303659262102298,0.1134703538398144,0.10008705435199122,0.0886971889823609,0.07926600893045559,0.07018319728932285,0.06268498747676526,0.056084426952781985,0.050267299328422804
crosssection_integrated=3.82929522,6.939330545173434,6.817966573542648,6.011801973997004,4.781728279019781,3.80358345437602,3.03635279532449,2.4492255761661856,1.9871267354885724,1.629826169279642,1.361259569781649,1.1479258019571488,0.9935105319310744,0.8530415178011808,0.7457385777332013,0.651829631051149,0.5673517691990719,0.5004352717599561,0.4434859449118045,0.39633004465227795,0.35091598644661426,0.3134249373838263,0.2804221347639099,0.251336496642114
ratios=1.45296297874,1.418298923240201,1.2671344135849527,1.2152677368454539,1.1563220719542877,1.1189509085598326,1.092180343313233,1.081829489874462,1.0719876552850947,1.0637068600942448,1.0600536711837862,1.0459097071680294,1.0461953849050398,1.025193936448968,1.0309120181727631,1.0267840064306288,1.0091076649967134,1.007493589290939,1.0081295581818663,1.0141128055917439,1.0047899894589314,1.00211833885517,0.9987964435566746,0.9971873730330457