file=suppliedInput/fromQianying/13tev-pth_quarkInduced_Apr18/higgs_plus_jet_13tev_1_1_mur050_muf100.pth
kappab=1.0
kappac=1.0
muR=1.0
muF=2.0
Q=1.0
binBoundaries=0.0,5.0,10.0,15.0,20.0,25.0,30.0,35.0,40.0,45.0,50.0,55.0,60.0,65.0,70.0,75.0,80.0,85.0,90.0,95.0,100.0,105.0,110.0,115.0,120.0
binCenters=3.0,7.5,12.5,17.5,22.5,27.5,32.5,37.5,42.5,47.5,52.5,57.5,62.5,67.5,72.5,77.5,82.5,87.5,92.5,97.5,102.5,107.5,112.5,117.5
crosssection=0.516645455,0.9852028236471906,1.0829175872072792,1.0059740463507283,0.8424921580712693,0.6930065028829464,0.5672528213998859,0.4621202149359316,0.378321179281914,0.31221424034408446,0.2613124322948013,0.22285733419884066,0.19199708647568803,0.16753735209918078,0.14530698451613877,0.1274715368691206,0.11244152981111559,0.09931145112487302,0.0877949920113964,0.07786585233617375,0.06953555408473695,0.062129633412568844,0.05570575646592177,0.04989800394349504
crosssection_integrated=2.583227275,4.926014118235953,5.414587936036396,5.029870231753641,4.212460790356347,3.465032514414732,2.836264106999429,2.310601074679658,1.8916058964095699,1.5610712017204222,1.3065621614740064,1.1142866709942032,0.9599854323784401,0.8376867604959038,0.7265349225806939,0.637357684345603,0.562207649055578,0.49655725562436515,0.438974960056982,0.3893292616808688,0.34767777042368475,0.3106481670628442,0.27852878232960887,0.2494900197174752
ratios=0.98016302756,1.006806128383594,1.0063133391938328,1.0167731804222289,1.0186612674130362,1.019354860147214,1.020208162529608,1.0205986766792072,1.02045739378419,1.0188338963163812,1.017459158154904,1.0152600836863939,1.0108924834226816,1.006740433592986,1.0043648078222642,1.0039873081657642,0.9999581895772715,0.9996862331426918,0.9978752147898526,0.9961994938045855,0.9955178925205947,0.9932401287016581,0.9920527759094276,0.9898614036714668