file=suppliedInput/fromQianying/13tev-pth_quarkInduced_Apr18/higgs_plus_jet_13tev_0_m5.pth
kappab=0.0
kappac=-5.0
muR=1.0
muF=1.0
Q=1.0
binBoundaries=0.0,5.0,10.0,15.0,20.0,25.0,30.0,35.0,40.0,45.0,50.0,55.0,60.0,65.0,70.0,75.0,80.0,85.0,90.0,95.0,100.0,105.0,110.0,115.0,120.0
binCenters=3.0,7.5,12.5,17.5,22.5,27.5,32.5,37.5,42.5,47.5,52.5,57.5,62.5,67.5,72.5,77.5,82.5,87.5,92.5,97.5,102.5,107.5,112.5,117.5
crosssection=0.657181394,1.1951179033826635,1.2595472498026523,1.108208496148913,0.893909480259309,0.7197745332072868,0.5814381931826532,0.4702108309869949,0.38373048032786905,0.31546863234499284,0.2634451226003934,0.22416359734438596,0.1940146302169377,0.16833278396790163,0.1466516376695314,0.1284211428241733,0.11296494308055512,0.0998095218858233,0.08836477613554204,0.07855469484561747,0.0700207277900311,0.06248623696624911,0.05603831618676991,0.05026617659268769
crosssection_integrated=3.28590697,5.975589516913318,6.297736249013262,5.541042480744565,4.469547401296545,3.598872666036434,2.907190965913266,2.3510541549349746,1.9186524016393451,1.5773431617249642,1.3172256130019668,1.1208179867219297,0.9700731510846885,0.8416639198395082,0.733258188347657,0.6421057141208665,0.5648247154027756,0.4990476094291165,0.4418238806777102,0.3927734742280874,0.3501036389501555,0.31243118483124555,0.28019158093384955,0.2513308829634385
ratios=1.24678326029,1.22132417852013,1.1704484383618254,1.120105117311757,1.0808301957351232,1.0587284038212958,1.0457206527902678,1.0384669104598472,1.035048068453863,1.0294537991074013,1.0257631078134677,1.0212109617906768,1.0215151435913505,1.0115202239763008,1.013659077540213,1.0114665647123486,1.0046129767025327,1.0046998995146275,1.0043513638530233,1.0050124013710018,1.0024639665248696,0.9989409986424295,0.9979752660640114,0.9971651005435095