file=suppliedInput/fromQianying/13tev-pth_quarkInduced_Apr18/higgs_plus_jet_13tev_2_m5.pth
kappab=2.0
kappac=-5.0
muR=1.0
muF=1.0
Q=1.0
binBoundaries=0.0,5.0,10.0,15.0,20.0,25.0,30.0,35.0,40.0,45.0,50.0,55.0,60.0,65.0,70.0,75.0,80.0,85.0,90.0,95.0,100.0,105.0,110.0,115.0,120.0
binCenters=3.0,7.5,12.5,17.5,22.5,27.5,32.5,37.5,42.5,47.5,52.5,57.5,62.5,67.5,72.5,77.5,82.5,87.5,92.5,97.5,102.5,107.5,112.5,117.5
crosssection=0.0,0.06830801,0.1620856,0.2183749,0.133473,0.08758566,0.06466751,0.04476791,0.03357446,0.02600896,0.01931988,0.0154275,0.01247908,0.009514572,0.008194863,0.005958562,0.005864028,0.005222549,0.004059407,0.003213871,0.003112602,0.002481887,0.002348861,0.001789165
crosssection_integrated=0.0,0.34154005,0.810428,1.0918745,0.667365,0.4379283,0.32333755,0.22383955,0.1678723,0.1300448,0.0965994,0.0771375,0.0623954,0.04757286,0.040974315,0.02979281,0.02932014,0.026112745,0.020297035,0.016069355,0.01556301,0.012409435,0.011744305,0.008945825
ratios=0.0,6.166496649,9.77936846576,5.69195280662,5.33926812028,5.13945458877,5.27115328341,5.03948191212,5.19048577544,5.12333125582,5.03377234076,5.2305227234,5.32758071581,4.9811931214,5.22633568751,5.18659898088,5.49100225295,5.89389619279,6.02103040812,5.44521410174,6.57913237351,5.64103176032,5.55261085076,5.58174236629