file=suppliedInput/fromQianying/13tev-pth_quarkInduced_Apr18/higgs_plus_jet_13tev_1_1_mur100_muf100.pth
kappab=1.0
kappac=1.0
muR=2.0
muF=2.0
Q=1.0
binBoundaries=0.0,5.0,10.0,15.0,20.0,25.0,30.0,35.0,40.0,45.0,50.0,55.0,60.0,65.0,70.0,75.0,80.0,85.0,90.0,95.0,100.0,105.0,110.0,115.0,120.0
binCenters=3.0,7.5,12.5,17.5,22.5,27.5,32.5,37.5,42.5,47.5,52.5,57.5,62.5,67.5,72.5,77.5,82.5,87.5,92.5,97.5,102.5,107.5,112.5,117.5
crosssection=0.0,0.01178296,0.02721772,0.04178862,0.02706253,0.01794838,0.01276718,0.009231455,0.006755122,0.005113203,0.004008461,0.003210099,0.002445492,0.001916351,0.0015279,0.001324245,0.0009838958,0.0009152418,0.0007173901,0.0006408074,0.0005559389,0.0004642008,0.0004301156,0.0002831134
crosssection_integrated=0.0,0.0589148,0.1360886,0.2089431,0.13531265,0.0897419,0.0638359,0.046157275,0.03377561,0.025566015,0.020042305,0.016050495,0.01222746,0.009581755,0.0076395,0.006621225,0.004919479,0.004576209,0.0035869505,0.003204037,0.0027796945,0.002321004,0.002150578,0.001415567
ratios=0.0,1.0637051695,1.64217001805,1.08922249257,1.08257178368,1.05319619618,1.04067348158,1.0391762871,1.04431656242,1.00721569595,1.04439986743,1.08834845334,1.04403177316,1.00327312878,0.974429749093,1.15268210139,0.921307683808,1.03289412134,1.06405384003,1.0857105002,1.17509261212,1.05507279581,1.01677559789,0.883242215919