file=suppliedInput/fromPier/histograms_ggH_May17/H125-LHC13-R04-MSbar-xmur025-xmuf050_0_-10-xQ050-NNLO+NNLLmult.0_-10.res
kappab=0.0
kappac=-10.0
muR=0.5
muF=1.0
Q=1.0
binBoundaries=0.0,5.0,10.0,15.0,20.0,25.0,30.0,35.0,40.0,45.0,50.0,55.0,60.0,65.0,70.0,75.0,80.0,85.0,90.0,95.0,100.0,105.0,110.0,115.0,120.0,125.0,130.0,135.0,140.0,145.0,150.0,155.0,160.0,165.0,170.0,175.0,180.0,185.0,190.0,195.0,200.0,205.0,210.0,215.0,220.0,225.0,230.0,235.0,240.0,245.0
binCenters=2.75,7.5,12.5,17.5,22.5,27.5,32.5,37.5,42.5,47.5,52.5,57.5,62.5,67.5,72.5,77.5,82.5,87.5,92.5,97.5,102.5,107.5,112.5,117.5,122.5,127.5,132.5,137.5,142.5,147.5,152.5,157.5,162.5,167.5,172.5,177.5,182.5,187.5,192.5,197.5,202.5,207.5,212.5,217.5,222.5,227.5,232.5,237.5,242.5
crosssection=0.656319015,1.13157674,1.1848666,1.0587322,0.915848347,0.77957182,0.657880442,0.551551683,0.461265534,0.386487709,0.325426905,0.275922853,0.236035231,0.204375235,0.178119997,0.156054148,0.137082593,0.120861611,0.106909413,0.0948478345,0.0843755595,0.0752482901,0.0672652962,0.0602620731,0.0541017073,0.048669084,0.0438692757,0.0396224437,0.0358622358,0.0325399614,0.0296541051,0.0271422175,0.0246825476,0.0224812477,0.0205028244,0.018718587,0.0171049306,0.015642152,0.0143136201,0.0131050999,0.0120042907,0.0110004543,0.010084161,0.00924706725,0.00848176432,0.00778164178,0.00714077488,0.00655382404,0.00601597873
crosssection_integrated=3.281595075,5.6578837,5.924333,5.293661,4.579241735,3.8978591,3.28940221,2.757758415,2.30632767,1.932438545,1.627134525,1.379614265,1.180176155,1.021876175,0.890599985,0.78027074,0.685412965,0.604308055,0.534547065,0.4742391725,0.4218777975,0.3762414505,0.336326481,0.3013103655,0.2705085365,0.24334542,0.2193463785,0.1981122185,0.179311179,0.162699807,0.1482705255,0.1357110875,0.123412738,0.1124062385,0.102514122,0.093592935,0.085524653,0.07821076,0.0715681005,0.0655254995,0.0600214535,0.0550022715,0.050420805,0.04623533625,0.0424088216,0.0389082089,0.0357038744,0.0327691202,0.03007989365
ratios=1.24514718278,1.16950605271,1.11990752851,1.11278587047,1.13840796616,1.1738833473,1.21035147343,1.24204877111,1.26555271854,1.28025166593,1.28349338061,1.27394324022,1.25381331301,1.24468938469,1.24102168833,1.23815573857,1.23358493113,1.22918773571,1.22490079449,1.22067920015,1.21648975728,1.21230230283,1.20808075146,1.20378848689,1.19936982753,1.19472171781,1.18962386856,1.18329524947,1.17124308883,1.16950022459,1.17067111632,1.17512855707,1.17042762324,1.16625436571,1.16243893423,1.15884708076,1.15537159086,1.15192670536,1.14844411219,1.14486873309,1.14115610935,1.13726977079,1.13317983816,1.12886131119,1.12429339669,1.11945848618,1.11434133631,1.10892778226,1.10320482207