file=suppliedInput/fromPier/histograms_ggH_May17/H125-LHC13-R04-MSbar-xmur025-xmuf025_2_-10-xQ050-NNLO+NNLLmult.2_-10.res
kappab=2.0
kappac=-10.0
muR=0.5
muF=0.5
Q=1.0
binBoundaries=0.0,5.0,10.0,15.0,20.0,25.0,30.0,35.0,40.0,45.0,50.0,55.0,60.0,65.0,70.0,75.0,80.0,85.0,90.0,95.0,100.0,105.0,110.0,115.0,120.0,125.0,130.0,135.0,140.0,145.0,150.0,155.0,160.0,165.0,170.0,175.0,180.0,185.0,190.0,195.0,200.0,205.0,210.0,215.0,220.0,225.0,230.0,235.0,240.0,245.0
binCenters=2.75,7.5,12.5,17.5,22.5,27.5,32.5,37.5,42.5,47.5,52.5,57.5,62.5,67.5,72.5,77.5,82.5,87.5,92.5,97.5,102.5,107.5,112.5,117.5,122.5,127.5,132.5,137.5,142.5,147.5,152.5,157.5,162.5,167.5,172.5,177.5,182.5,187.5,192.5,197.5,202.5,207.5,212.5,217.5,222.5,227.5,232.5,237.5,242.5
crosssection=0.523086725,0.88288259,1.01531587,0.958650399,0.854173956,0.739014291,0.629729229,0.531457908,0.446892115,0.376426616,0.318781557,0.27208056,0.234460962,0.204193893,0.178848332,0.157394167,0.13883064,0.122862952,0.109052852,0.0970522154,0.0865826252,0.0774163299,0.0693665948,0.0622772605,0.0560181809,0.050480761,0.045572896,0.0412172083,0.0373499538,0.0339232572,0.0309343343,0.0283236878,0.02578061,0.0235004478,0.0214476794,0.0195933674,0.0179136548,0.016388728,0.0150017408,0.013738295,0.0125859084,0.0115336824,0.0105720468,0.00969250346,0.00888749085,0.00815025221,0.00747472015,0.00685543143,0.0062874553
crosssection_integrated=2.615433625,4.41441295,5.07657935,4.793251995,4.27086978,3.695071455,3.148646145,2.65728954,2.234460575,1.88213308,1.593907785,1.3604028,1.17230481,1.020969465,0.89424166,0.786970835,0.6941532,0.61431476,0.54526426,0.485261077,0.432913126,0.3870816495,0.346832974,0.3113863025,0.2800909045,0.252403805,0.22786448,0.2060860415,0.186749769,0.169616286,0.1546716715,0.141618439,0.12890305,0.117502239,0.107238397,0.097966837,0.089568274,0.08194364,0.075008704,0.068691475,0.062929542,0.057668412,0.052860234,0.0484625173,0.04443745425,0.04075126105,0.03737360075,0.03427715715,0.0314372765
ratios=0.992383196427,0.91247592526,0.959652239865,1.00759438386,1.06174612771,1.11281160679,1.15855959764,1.19679925177,1.22611703963,1.24692400563,1.25728393069,1.25620327,1.24545083499,1.24358497269,1.24609624226,1.24878763933,1.24931533417,1.24954179017,1.24945897006,1.24904929345,1.24831026116,1.24723093229,1.24581995035,1.24404364683,1.24185574388,1.23919450586,1.23582174486,1.23092172576,1.21983123139,1.2192164713,1.2212114156,1.22628058578,1.22249690659,1.21912716806,1.21600893111,1.21300377073,1.2099977678,1.20690640585,1.20365503443,1.20018500518,1.19644605594,1.19239696668,1.18800466215,1.18323916857,1.17807414812,1.17248637999,1.16645459078,1.15996070778,1.15298795372