file=suppliedInput/fromPier/histograms_ggH_May17/H125-LHC13-R04-MSbar-xmur050-xmuf050_0_-5-xQ025-NNLO+NNLLmult.0_-5.res
kappab=0.0
kappac=-5.0
muR=1.0
muF=1.0
Q=0.5
binBoundaries=0.0,5.0,10.0,15.0,20.0,25.0,30.0,35.0,40.0,45.0,50.0,55.0,60.0,65.0,70.0,75.0,80.0,85.0,90.0,95.0,100.0,105.0,110.0,115.0,120.0,125.0,130.0,135.0,140.0,145.0,150.0,155.0,160.0,165.0,170.0,175.0,180.0,185.0,190.0,195.0,200.0,205.0,210.0,215.0,220.0,225.0,230.0,235.0,240.0,245.0
binCenters=2.75,7.5,12.5,17.5,22.5,27.5,32.5,37.5,42.5,47.5,52.5,57.5,62.5,67.5,72.5,77.5,82.5,87.5,92.5,97.5,102.5,107.5,112.5,117.5,122.5,127.5,132.5,137.5,142.5,147.5,152.5,157.5,162.5,167.5,172.5,177.5,182.5,187.5,192.5,197.5,202.5,207.5,212.5,217.5,222.5,227.5,232.5,237.5,242.5
crosssection=0.616354532,1.10988668,1.22332891,1.08164012,0.87003582,0.677374061,0.533528654,0.434292159,0.359727256,0.301968229,0.25623874,0.219389406,0.189278408,0.164514205,0.143557435,0.125876964,0.110840361,0.0979641866,0.0868739813,0.077274337,0.0689291165,0.0616466803,0.0552697761,0.0496694901,0.0447391339,0.0403903389,0.0365534658,0.0331847429,0.0303411298,0.0275666138,0.0250931019,0.022877645,0.0208858077,0.0190894738,0.0174653426,0.0159938283,0.0146582384,0.0134441933,0.0123392157,0.0113323753,0.0104140413,0.00957567405,0.00880967829,0.00810926766,0.00746836874,0.00688153148,0.00634385135,0.00585089896,0.00539867691
crosssection_integrated=3.08177266,5.5494334,6.11664455,5.4082006,4.3501791,3.386870305,2.66764327,2.171460795,1.79863628,1.509841145,1.2811937,1.09694703,0.94639204,0.822571025,0.717787175,0.62938482,0.554201805,0.489820933,0.4343699065,0.386371685,0.3446455825,0.3082334015,0.2763488805,0.2483474505,0.2236956695,0.2019516945,0.182767329,0.1659237145,0.151705649,0.137833069,0.1254655095,0.114388225,0.1044290385,0.095447369,0.087326713,0.0799691415,0.073291192,0.0672209665,0.0616960785,0.0566618765,0.0520702065,0.04787837025,0.04404839145,0.0405463383,0.0373418437,0.0344076574,0.03171925675,0.0292544948,0.02699338455
ratios=1.16932785973,1.14708896374,1.15626118261,1.13686335645,1.08146257137,1.01999342421,0.981572260336,0.977990021633,0.986966883945,1.00027845448,1.01061320251,1.01292679352,1.00544222492,1.0019270906,1.00021274061,0.998725681617,0.997435167353,0.99631616451,0.995347422917,0.994510590344,0.993789726525,0.993170906481,0.992641918134,0.992192224001,0.991812827862,0.991496266367,0.991237596258,0.991038032028,0.990926466036,0.990755970299,0.990613930658,0.99049290862,0.990389106579,0.990300113923,0.990224265777,0.990160274149,0.9901070408,0.9900635983,0.990029043714,0.9900025373,0.989983260946,0.989970444406,0.989963351331,0.989961279179,0.989963566739,0.989969601663,0.989978806154,0.989990632693,0.990004564049