file=suppliedInput/fromPier/histograms_ggH_May17/H125-LHC13-R04-MSbar-xmur025-xmuf025_-2_1-xQ050-NNLO+NNLLmult.-2_1.res
kappab=-2.0
kappac=1.0
muR=0.5
muF=0.5
Q=1.0
binBoundaries=0.0,5.0,10.0,15.0,20.0,25.0,30.0,35.0,40.0,45.0,50.0,55.0,60.0,65.0,70.0,75.0,80.0,85.0,90.0,95.0,100.0,105.0,110.0,115.0,120.0,125.0,130.0,135.0,140.0,145.0,150.0,155.0,160.0,165.0,170.0,175.0,180.0,185.0,190.0,195.0,200.0,205.0,210.0,215.0,220.0,225.0,230.0,235.0,240.0,245.0
binCenters=2.75,7.5,12.5,17.5,22.5,27.5,32.5,37.5,42.5,47.5,52.5,57.5,62.5,67.5,72.5,77.5,82.5,87.5,92.5,97.5,102.5,107.5,112.5,117.5,122.5,127.5,132.5,137.5,142.5,147.5,152.5,157.5,162.5,167.5,172.5,177.5,182.5,187.5,192.5,197.5,202.5,207.5,212.5,217.5,222.5,227.5,232.5,237.5,242.5
crosssection=0.641815469,1.2380129,1.28383736,1.1164103,0.946217818,0.794926138,0.66518649,0.554330855,0.461546584,0.385540354,0.324091311,0.274767033,0.235357893,0.203895408,0.177769188,0.155822189,0.13696505,0.120842939,0.106974894,0.0949824581,0.0845654749,0.0754805815,0.0675298537,0.0605491588,0.0544027252,0.0489780491,0.0441803699,0.0399305676,0.0361638199,0.0328316643,0.0299311861,0.027401582,0.0249324363,0.0227202407,0.0207298318,0.0189327238,0.0173055043,0.0158287705,0.0144860482,0.0132632739,0.0121482668,0.0111304006,0.0102003526,0.0093498497,0.00857153669,0.00785884581,0.0072058834,0.00660734614,0.0060584505
crosssection_integrated=3.209077345,6.1900645,6.4191868,5.5820515,4.73108909,3.97463069,3.32593245,2.771654275,2.30773292,1.92770177,1.620456555,1.373835165,1.176789465,1.01947704,0.88884594,0.779110945,0.68482525,0.604214695,0.53487447,0.4749122905,0.4228273745,0.3774029075,0.3376492685,0.302745794,0.272013626,0.2448902455,0.2209018495,0.199652838,0.1808190995,0.1641583215,0.1496559305,0.13700791,0.1246621815,0.1136012035,0.103649159,0.094663619,0.0865275215,0.0791438525,0.072430241,0.0663163695,0.060741334,0.055652003,0.051001763,0.0467492485,0.04285768345,0.03929422905,0.036029417,0.0330367307,0.0302922525
ratios=1.21763152495,1.2795098456,1.21345232016,1.1734087312,1.1761574995,1.19700396011,1.22379295215,1.24830723659,1.26632382231,1.27711352521,1.2782257582,1.26860678816,1.25021531029,1.24176713448,1.23857748451,1.23631534297,1.23252717995,1.22899783759,1.22565103459,1.22241178824,1.21922787411,1.21604467889,1.21283218855,1.20952327898,1.20604303259,1.20230614892,1.19805995692,1.19249714398,1.18109267809,1.17998415243,1.18160959255,1.18635780282,1.18227715522,1.17865254901,1.17530946538,1.17210405392,1.16891956485,1.1656697526,1.16227877001,1.1586869007,1.15484281606,1.15070412494,1.14623654942,1.14140876306,1.13619310046,1.13056497361,1.12450173436,1.11798389107,1.11099325743