file=suppliedInput/fromPier/histograms_ggH_May17/H125-LHC13-R04-MSbar-xmur050-xmuf025_-2_-5-xQ050-NNLO+NNLLmult.-2_-5.res
kappab=-2.0
kappac=-5.0
muR=1.0
muF=0.5
Q=1.0
binBoundaries=0.0,5.0,10.0,15.0,20.0,25.0,30.0,35.0,40.0,45.0,50.0,55.0,60.0,65.0,70.0,75.0,80.0,85.0,90.0,95.0,100.0,105.0,110.0,115.0,120.0,125.0,130.0,135.0,140.0,145.0,150.0,155.0,160.0,165.0,170.0,175.0,180.0,185.0,190.0,195.0,200.0,205.0,210.0,215.0,220.0,225.0,230.0,235.0,240.0,245.0
binCenters=2.75,7.5,12.5,17.5,22.5,27.5,32.5,37.5,42.5,47.5,52.5,57.5,62.5,67.5,72.5,77.5,82.5,87.5,92.5,97.5,102.5,107.5,112.5,117.5,122.5,127.5,132.5,137.5,142.5,147.5,152.5,157.5,162.5,167.5,172.5,177.5,182.5,187.5,192.5,197.5,202.5,207.5,212.5,217.5,222.5,227.5,232.5,237.5,242.5
crosssection=0.741315333,1.40330966,1.3490436,1.10206824,0.882321547,0.707138232,0.568946409,0.45923081,0.373244927,0.306519756,0.255662801,0.217346553,0.188433294,0.163745236,0.142903593,0.125418909,0.110433857,0.0976308822,0.0866212648,0.0771005445,0.0688278316,0.061608664,0.055285232,0.0497272329,0.0448270712,0.0404956258,0.0366580089,0.0332516996,0.030225326,0.0275399035,0.0251891212,0.0231266031,0.0211316535,0.0193393134,0.0177225676,0.0162593966,0.0149315917,0.0137239585,0.012623548,0.0116192569,0.0107014419,0.00986167127,0.00909252854,0.0083874266,0.00774050229,0.00714651539,0.00660076131,0.00609900471,0.00563742478
crosssection_integrated=3.706576665,7.0165483,6.745218,5.5103412,4.411607735,3.53569116,2.844732045,2.29615405,1.866224635,1.53259878,1.278314005,1.086732765,0.94216647,0.81872618,0.714517965,0.627094545,0.552169285,0.488154411,0.433106324,0.3855027225,0.344139158,0.30804332,0.27642616,0.2486361645,0.224135356,0.202478129,0.1832900445,0.166258498,0.15112663,0.1376995175,0.125945606,0.1156330155,0.1056582675,0.096696567,0.088612838,0.081296983,0.0746579585,0.0686197925,0.06311774,0.0580962845,0.0535072095,0.04930835635,0.0454626427,0.041937133,0.03870251145,0.03573257695,0.03300380655,0.03049502355,0.0281871239
ratios=1.40639944499,1.45034718652,1.27508369628,1.158334436,1.09673384366,1.06481246947,1.04673293272,1.034149801,1.024054687,1.01535551874,1.00834168199,1.00349488623,1.00095300024,0.997243903071,0.995657204359,0.995091408296,0.993777101089,0.9929263894,0.992451956251,0.992273903645,0.992329445324,0.99255843744,0.992919505186,0.993345687768,0.993762292114,0.994080834139,0.994072540876,0.993037644814,0.987144370543,0.989795990615,0.994404536402,1.00127160689,1.00204692732,1.00326098372,1.0048080299,1.00660131477,1.00857099394,1.01066619858,1.01284226312,1.01506467162,1.01730423798,1.01953794989,1.0217478697,1.02391830114,1.02603600895,1.0280898975,1.03007044788,1.0319709113,1.03378593584