file=suppliedInput/fromPier/histograms_ggH_May17/H125-LHC13-R04-MSbar-xmur025-xmuf050_-2_1-xQ050-NNLO+NNLLmult.-2_1.res
kappab=-2.0
kappac=1.0
muR=0.5
muF=1.0
Q=1.0
binBoundaries=0.0,5.0,10.0,15.0,20.0,25.0,30.0,35.0,40.0,45.0,50.0,55.0,60.0,65.0,70.0,75.0,80.0,85.0,90.0,95.0,100.0,105.0,110.0,115.0,120.0,125.0,130.0,135.0,140.0,145.0,150.0,155.0,160.0,165.0,170.0,175.0,180.0,185.0,190.0,195.0,200.0,205.0,210.0,215.0,220.0,225.0,230.0,235.0,240.0,245.0
binCenters=2.75,7.5,12.5,17.5,22.5,27.5,32.5,37.5,42.5,47.5,52.5,57.5,62.5,67.5,72.5,77.5,82.5,87.5,92.5,97.5,102.5,107.5,112.5,117.5,122.5,127.5,132.5,137.5,142.5,147.5,152.5,157.5,162.5,167.5,172.5,177.5,182.5,187.5,192.5,197.5,202.5,207.5,212.5,217.5,222.5,227.5,232.5,237.5,242.5
crosssection=0.668562217,1.2345372,1.27367672,1.11573417,0.950827164,0.801095013,0.671285181,0.55988542,0.466350803,0.389463798,0.327019944,0.276607941,0.236126733,0.204052112,0.177529092,0.15530157,0.13624105,0.119981262,0.106024418,0.0939810549,0.0835418223,0.0744567117,0.0665209526,0.0595672084,0.0534566104,0.048072723,0.0433197571,0.0391173427,0.0353988325,0.0321154136,0.0292656116,0.0267865114,0.0243565756,0.0221824627,0.0202288623,0.0184672932,0.0168743498,0.01543051,0.0141193049,0.0129266442,0.0118403568,0.010849821,0.00994571203,0.00911978174,0.00836470817,0.00767395996,0.0070416847,0.00646260897,0.00593198288
crosssection_integrated=3.342811085,6.172686,6.3683836,5.57867085,4.75413582,4.005475065,3.356425905,2.7994271,2.331754015,1.94731899,1.63509972,1.383039705,1.180633665,1.02026056,0.88764546,0.77650785,0.68120525,0.59990631,0.53012209,0.4699052745,0.4177091115,0.3722835585,0.332604763,0.297836042,0.267283052,0.240363615,0.2165987855,0.1955867135,0.1769941625,0.160577068,0.146328058,0.133932557,0.121782878,0.1109123135,0.1011443115,0.092336466,0.084371749,0.07715255,0.0705965245,0.064633221,0.059201784,0.054249105,0.04972856015,0.0455989087,0.04182354085,0.0383697998,0.0352084235,0.03231304485,0.0296599144
ratios=1.26837458916,1.27591764363,1.20384872662,1.17269808133,1.18188695921,1.20629308453,1.23501316659,1.26081565755,1.27950493377,1.29011004645,1.28977637375,1.27710630996,1.25429936937,1.24272149573,1.23690465525,1.232184678,1.22601201657,1.22023440318,1.21476107856,1.20952386029,1.20446930053,1.19954942412,1.19471238431,1.18990794673,1.18506880458,1.18008233322,1.17472231315,1.1682107782,1.1561085636,1.15424179385,1.15533434869,1.15972817956,1.15497027907,1.15075436699,1.14690623467,1.14328975869,1.13979675388,1.13634086578,1.13285335696,1.12927874501,1.12557216723,1.12169671409,1.11762201621,1.1133225805,1.10877711358,1.10396749719,1.09887798878,1.09349390355,1.0878017379