file=suppliedInput/fromPier/histograms_ggH_May17/H125-LHC13-R04-MSbar-xmur050-xmuf025_-1_1-xQ050-NNLO+NNLLmult.-1_1.res
kappab=-1.0
kappac=1.0
muR=1.0
muF=0.5
Q=1.0
binBoundaries=0.0,5.0,10.0,15.0,20.0,25.0,30.0,35.0,40.0,45.0,50.0,55.0,60.0,65.0,70.0,75.0,80.0,85.0,90.0,95.0,100.0,105.0,110.0,115.0,120.0,125.0,130.0,135.0,140.0,145.0,150.0,155.0,160.0,165.0,170.0,175.0,180.0,185.0,190.0,195.0,200.0,205.0,210.0,215.0,220.0,225.0,230.0,235.0,240.0,245.0
binCenters=2.75,7.5,12.5,17.5,22.5,27.5,32.5,37.5,42.5,47.5,52.5,57.5,62.5,67.5,72.5,77.5,82.5,87.5,92.5,97.5,102.5,107.5,112.5,117.5,122.5,127.5,132.5,137.5,142.5,147.5,152.5,157.5,162.5,167.5,172.5,177.5,182.5,187.5,192.5,197.5,202.5,207.5,212.5,217.5,222.5,227.5,232.5,237.5,242.5
crosssection=0.620085894,1.17988056,1.20458212,1.02616454,0.840743828,0.681774867,0.551976904,0.447399538,0.364939565,0.300798835,0.25184665,0.214931803,0.187015014,0.162935395,0.142504557,0.125305211,0.110516402,0.0978456139,0.0869220758,0.0774542383,0.0692106011,0.0620035717,0.0556803804,0.0501144257,0.0452008255,0.0408524414,0.0369958258,0.0335694947,0.0305228125,0.027817304,0.0254469673,0.0233660193,0.0213538883,0.0195454143,0.0179135999,0.0164363904,0.0150955254,0.0138757534,0.0127640691,0.0117493145,0.0108217944,0.00997302774,0.00919555126,0.00848273362,0.00782866972,0.00722807966,0.00667622131,0.00616882384,0.00570203308
crosssection_integrated=3.10042947,5.8994028,6.0229106,5.1308227,4.20371914,3.408874335,2.75988452,2.23699769,1.824697825,1.503994175,1.25923325,1.074659015,0.93507507,0.814676975,0.712522785,0.626526055,0.55258201,0.4892280695,0.434610379,0.3872711915,0.3460530055,0.3100178585,0.278401902,0.2505721285,0.2260041275,0.204262207,0.184979129,0.1678474735,0.1526140625,0.13908652,0.1272348365,0.1168300965,0.1067694415,0.0977270715,0.0895679995,0.082181952,0.075477627,0.069378767,0.0638203455,0.0587465725,0.054108972,0.0498651387,0.0459777563,0.0424136681,0.0391433486,0.0361403983,0.03338110655,0.0308441192,0.0285101654
ratios=1.17640687889,1.21942896811,1.13854216576,1.07855546557,1.04505235439,1.02662018103,1.01551287499,1.00750675503,1.00126765289,0.996404803183,0.993290669081,0.992345920474,0.993419131933,0.992311796223,0.992876986872,0.994189312241,0.994519910704,0.995110255475,0.99589845944,0.996825896499,0.997848047854,0.99892067522,1.00001634714,1.00108020819,1.00204797574,1.00283989249,1.0032332813,1.00252836262,0.996860134197,0.999765884035,1.00458366609,1.0116371864,1.01258513241,1.01395283132,1.01563889782,1.01755880576,1.01964407832,1.02184474991,1.02411688329,1.02642657507,1.02874522971,1.03105041507,1.03332476431,1.03555316922,1.03772297119,1.03982364429,1.04184622833,1.0437845292,1.04563374835