file=suppliedInput/fromPier/histograms_ggH_May17/H125-LHC13-R04-MSbar-xmur050-xmuf050_-2_0-xQ100-NNLO+NNLLmult.-2_0.res
kappab=-2.0
kappac=0.0
muR=1.0
muF=1.0
Q=2.0
binBoundaries=0.0,5.0,10.0,15.0,20.0,25.0,30.0,35.0,40.0,45.0,50.0,55.0,60.0,65.0,70.0,75.0,80.0,85.0,90.0,95.0,100.0,105.0,110.0,115.0,120.0,125.0,130.0,135.0,140.0,145.0,150.0,155.0,160.0,165.0,170.0,175.0,180.0,185.0,190.0,195.0,200.0,205.0,210.0,215.0,220.0,225.0,230.0,235.0,240.0,245.0
binCenters=2.75,7.5,12.5,17.5,22.5,27.5,32.5,37.5,42.5,47.5,52.5,57.5,62.5,67.5,72.5,77.5,82.5,87.5,92.5,97.5,102.5,107.5,112.5,117.5,122.5,127.5,132.5,137.5,142.5,147.5,152.5,157.5,162.5,167.5,172.5,177.5,182.5,187.5,192.5,197.5,202.5,207.5,212.5,217.5,222.5,227.5,232.5,237.5,242.5
crosssection=0.723670617,1.29494894,1.29490318,1.09155745,0.888150171,0.721941315,0.592678336,0.488220681,0.403285939,0.334587955,0.27849985,0.232507833,0.194900327,0.16446492,0.139125822,0.118495803,0.101647006,0.0878965719,0.0766988689,0.0676603146,0.060356431,0.0545013771,0.0498323828,0.0461348969,0.0432372087,0.0399498242,0.0361443701,0.0328062377,0.0299918283,0.0272441718,0.024795804,0.0226037071,0.0206335075,0.0188571855,0.0172515442,0.0157971002,0.0144772588,0.0132777326,0.0121861309,0.0111916052,0.0102846016,0.00945665289,0.008700232,0.00800861667,0.00737579361,0.0067963691,0.0062654912,0.00577877952,0.00533228225
crosssection_integrated=3.618353085,6.4747447,6.4745159,5.45778725,4.440750855,3.609706575,2.96339168,2.441103405,2.016429695,1.672939775,1.39249925,1.162539165,0.974501635,0.8223246,0.69562911,0.592479015,0.50823503,0.4394828595,0.3834943445,0.338301573,0.301782155,0.2725068855,0.249161914,0.2306744845,0.2161860435,0.199749121,0.1807218505,0.1640311885,0.1499591415,0.136220859,0.12397902,0.1130185355,0.1031675375,0.0942859275,0.086257721,0.078985501,0.072386294,0.066388663,0.0609306545,0.055958026,0.051423008,0.04728326445,0.04350116,0.04004308335,0.03687896805,0.0339818455,0.031327456,0.0288938976,0.02666141125
ratios=1.37292446116,1.33835432432,1.22391146816,1.14728701665,1.10397887721,1.08710302972,1.09039432008,1.09943259273,1.10647680962,1.10833223622,1.09841168165,1.07349492414,1.03530571969,1.00162693429,0.969336208269,0.940162503601,0.91470559574,0.893926427895,0.878767386482,0.870779381979,0.870192512297,0.878055101028,0.894986655243,0.921585582359,0.958516951299,0.980682574473,0.980143954946,0.979734251563,0.979518449813,0.979167265973,0.978877340958,0.978632704156,0.978425223101,0.978249748766,0.978102639049,0.977981054404,0.977882572121,0.977805021237,0.977746383143,0.977704783962,0.977678418607,0.977665573747,0.977664625717,0.977674031182,0.977692345395,0.977718234704,0.977750447786,0.977787795056,0.977829170425