file=suppliedInput/fromPier/histograms_ggH_May17/H125-LHC13-R04-MSbar-xmur050-xmuf050_-1_5-xQ100-NNLO+NNLLmult.-1_5.res
kappab=-1.0
kappac=5.0
muR=1.0
muF=1.0
Q=2.0
binBoundaries=0.0,5.0,10.0,15.0,20.0,25.0,30.0,35.0,40.0,45.0,50.0,55.0,60.0,65.0,70.0,75.0,80.0,85.0,90.0,95.0,100.0,105.0,110.0,115.0,120.0,125.0,130.0,135.0,140.0,145.0,150.0,155.0,160.0,165.0,170.0,175.0,180.0,185.0,190.0,195.0,200.0,205.0,210.0,215.0,220.0,225.0,230.0,235.0,240.0,245.0
binCenters=2.75,7.5,12.5,17.5,22.5,27.5,32.5,37.5,42.5,47.5,52.5,57.5,62.5,67.5,72.5,77.5,82.5,87.5,92.5,97.5,102.5,107.5,112.5,117.5,122.5,127.5,132.5,137.5,142.5,147.5,152.5,157.5,162.5,167.5,172.5,177.5,182.5,187.5,192.5,197.5,202.5,207.5,212.5,217.5,222.5,227.5,232.5,237.5,242.5
crosssection=0.596706183,1.09545758,1.1582497,1.01476539,0.846419012,0.698653514,0.57874167,0.47939286,0.397417123,0.330506623,0.275599847,0.230448295,0.193460574,0.163482297,0.13850991,0.118156603,0.101519198,0.087927898,0.0768469487,0.0678870559,0.0606349069,0.0548093546,0.050153633,0.0464580391,0.04355457,0.0402538782,0.036430406,0.0330737614,0.030240982,0.027476045,0.0250111189,0.0228033573,0.0208184289,0.0190283097,0.017409778,0.0159433161,0.0146122902,0.0134023721,0.0123011291,0.0112976706,0.0103824008,0.00954681137,0.00878333496,0.00808521027,0.00744638641,0.00686143361,0.00632546559,0.00583406941,0.00538326254
crosssection_integrated=2.983530915,5.4772879,5.7912485,5.07382695,4.23209506,3.49326757,2.89370835,2.3969643,1.987085615,1.652533115,1.377999235,1.152241475,0.96730287,0.817411485,0.69254955,0.590783015,0.50759599,0.43963949,0.3842347435,0.3394352795,0.3031745345,0.274046773,0.250768165,0.2322901955,0.21777285,0.201269391,0.18215203,0.165368807,0.15120491,0.137380225,0.1250555945,0.1140167865,0.1040921445,0.0951415485,0.08704889,0.0797165805,0.073061451,0.0670118605,0.0615056455,0.056488353,0.051912004,0.04773405685,0.0439166748,0.04042605135,0.03723193205,0.03430716805,0.03162732795,0.02917034705,0.0269163127
ratios=1.13205164825,1.13217621484,1.0947498722,1.06657433092,1.05210666059,1.05203613647,1.06475400133,1.07955306999,1.09037481306,1.09481270644,1.08697398367,1.06398598175,1.02765778734,0.995642547691,0.965044943038,0.937471242703,0.913555471428,0.894245020851,0.880463991669,0.873697512796,0.87420745551,0.883016832809,0.900756289883,0.928040635097,0.965552469893,0.988146448607,0.98790052554,0.987723650847,0.987655687849,0.987500888627,0.987377443507,0.987276605541,0.98719405516,0.987127118385,0.987073945941,0.987033119545,0.987003418448,0.986983781844,0.986973189834,0.986970715625,0.986975440594,0.986986508237,0.987003092126,0.987024406754,0.987049716798,0.987078344039,0.987109648015,0.987143019537,0.987177890606