file=suppliedInput/fromPier/histograms_ggH_May17/H125-LHC13-R04-MSbar-xmur025-xmuf025_-2_-5-xQ050-NNLO+NNLLmult.-2_-5.res
kappab=-2.0
kappac=-5.0
muR=0.5
muF=0.5
Q=1.0
binBoundaries=0.0,5.0,10.0,15.0,20.0,25.0,30.0,35.0,40.0,45.0,50.0,55.0,60.0,65.0,70.0,75.0,80.0,85.0,90.0,95.0,100.0,105.0,110.0,115.0,120.0,125.0,130.0,135.0,140.0,145.0,150.0,155.0,160.0,165.0,170.0,175.0,180.0,185.0,190.0,195.0,200.0,205.0,210.0,215.0,220.0,225.0,230.0,235.0,240.0,245.0
binCenters=2.75,7.5,12.5,17.5,22.5,27.5,32.5,37.5,42.5,47.5,52.5,57.5,62.5,67.5,72.5,77.5,82.5,87.5,92.5,97.5,102.5,107.5,112.5,117.5,122.5,127.5,132.5,137.5,142.5,147.5,152.5,157.5,162.5,167.5,172.5,177.5,182.5,187.5,192.5,197.5,202.5,207.5,212.5,217.5,222.5,227.5,232.5,237.5,242.5
crosssection=0.710252076,1.3548259,1.3570475,1.15387362,0.966485431,0.807330515,0.673703977,0.560508989,0.466084463,0.388844672,0.326444136,0.276383839,0.236419789,0.204608006,0.178239829,0.156118539,0.137135764,0.120923487,0.106991268,0.094953786,0.084505861,0.0754004178,0.0674367755,0.060448747,0.0542990266,0.0488739634,0.0440779403,0.0398311987,0.0360684423,0.0327408601,0.0298452977,0.0273206273,0.024856288,0.0226487932,0.0206629181,0.0188701478,0.0172470564,0.0157742356,0.0144352111,0.0132159217,0.0121041916,0.0110894004,0.0101622326,0.00931442324,0.00853862528,0.00782827977,0.00717750193,0.00658099734,0.00603399131
crosssection_integrated=3.55126038,6.7741295,6.7852375,5.7693681,4.832427155,4.036652575,3.368519885,2.802544945,2.330422315,1.94422336,1.63222068,1.381919195,1.182098945,1.02304003,0.891199145,0.780592695,0.68567882,0.604617435,0.53495634,0.47476893,0.422529305,0.377002089,0.3371838775,0.302243735,0.271495133,0.244369817,0.2203897015,0.1991559935,0.1803422115,0.1637043005,0.1492264885,0.1366031365,0.12428144,0.113243966,0.1033145905,0.094350739,0.086235282,0.078871178,0.0721760555,0.0660796085,0.060520958,0.055447002,0.050811163,0.0465721162,0.0426931264,0.03914139885,0.03588750965,0.0329049867,0.03016995655
ratios=1.34746723968,1.40023829971,1.28264879084,1.21278474448,1.20135032992,1.21568253624,1.2394632051,1.26221988336,1.27877418914,1.28805917374,1.2875053699,1.27607162499,1.2558560756,1.24610701042,1.24185659802,1.2386666259,1.23406340868,1.22981702751,1.22583863759,1.22204278207,1.21836838708,1.21475318591,1.21116050957,1.20751746401,1.20374415926,1.19975106804,1.19528232508,1.18952956459,1.17797769231,1.17672061038,1.17821892981,1.18285285044,1.17866626078,1.17494608396,1.17151569099,1.16823004276,1.16497163634,1.16165366787,1.15819988795,1.15455018647,1.15065292388,1.14646536472,1.14195291934,1.13708397997,1.13183055517,1.12616777648,1.1200727129,1.11352559067,1.10650795295