file=suppliedInput/fromPier/histograms_ggH_May17/H125-LHC13-R04-MSbar-xmur050-xmuf050_2_10-xQ100-NNLO+NNLLmult.2_10.res
kappab=2.0
kappac=10.0
muR=1.0
muF=1.0
Q=2.0
binBoundaries=0.0,5.0,10.0,15.0,20.0,25.0,30.0,35.0,40.0,45.0,50.0,55.0,60.0,65.0,70.0,75.0,80.0,85.0,90.0,95.0,100.0,105.0,110.0,115.0,120.0,125.0,130.0,135.0,140.0,145.0,150.0,155.0,160.0,165.0,170.0,175.0,180.0,185.0,190.0,195.0,200.0,205.0,210.0,215.0,220.0,225.0,230.0,235.0,240.0,245.0
binCenters=2.75,7.5,12.5,17.5,22.5,27.5,32.5,37.5,42.5,47.5,52.5,57.5,62.5,67.5,72.5,77.5,82.5,87.5,92.5,97.5,102.5,107.5,112.5,117.5,122.5,127.5,132.5,137.5,142.5,147.5,152.5,157.5,162.5,167.5,172.5,177.5,182.5,187.5,192.5,197.5,202.5,207.5,212.5,217.5,222.5,227.5,232.5,237.5,242.5
crosssection=0.39403004,0.752430033,0.91530245,0.874332381,0.768213094,0.654374498,0.552416953,0.463271717,0.387382489,0.324203446,0.271729434,0.228241413,0.192410429,0.163224125,0.138835382,0.118878574,0.102507555,0.0890846995,0.0780973811,0.0691675983,0.0619033247,0.0560325248,0.0513089481,0.0475309342,0.0445362086,0.0411540954,0.0372637518,0.0338427389,0.0309490019,0.0281283177,0.0256114886,0.023355731,0.0213265259,0.019495602,0.0178394842,0.0163384126,0.0149755279,0.0137362936,0.0126080848,0.0115798326,0.0106417759,0.00978525271,0.00900255223,0.00828677972,0.00763175992,0.00703194729,0.00648234801,0.00597844929,0.00551617611
crosssection_integrated=1.9701502,3.762150165,4.57651225,4.371661905,3.84106547,3.27187249,2.762084765,2.316358585,1.936912445,1.62101723,1.35864717,1.141207065,0.962052145,0.816120625,0.69417691,0.59439287,0.512537775,0.4454234975,0.3904869055,0.3458379915,0.3095166235,0.280162624,0.2565447405,0.237654671,0.222681043,0.205770477,0.186318759,0.1692136945,0.1547450095,0.1406415885,0.128057443,0.116778655,0.1066326295,0.09747801,0.089197421,0.081692063,0.0748776395,0.068681468,0.063040424,0.057899163,0.0532088795,0.04892626355,0.04501276115,0.0414338986,0.0381587996,0.03515973645,0.03241174005,0.02989224645,0.02758088055
ratios=0.747541032672,0.777650729929,0.865121950961,0.918971501643,0.954895981176,0.98536056126,1.01632246579,1.04324958934,1.06284325607,1.07393325111,1.07170895983,1.05379674814,1.02207944306,0.994070224372,0.967312615494,0.943199462992,0.922449542332,0.906009932842,0.894790659427,0.890177925668,0.892494946234,0.902722955676,0.921505680922,0.94947266859,0.987314217851,1.01024485177,1.01049875719,1.01068860045,1.01077927164,1.01094385034,1.01107856227,1.01119175209,1.01128762823,1.01136873043,1.01143679505,1.0114931082,1.01153871351,1.0115745858,1.0116015832,1.01162054309,1.01163224768,1.0116375018,1.0116370295,1.01163155489,1.01162175221,1.01160825578,1.01159166411,1.01157255246,1.01155146271