file=suppliedInput/fromPier/histograms_ggH_May17/H125-LHC13-R04-MSbar-xmur025-xmuf050_2_-5-xQ050-NNLO+NNLLmult.2_-5.res
kappab=2.0
kappac=-5.0
muR=0.5
muF=1.0
Q=1.0
binBoundaries=0.0,5.0,10.0,15.0,20.0,25.0,30.0,35.0,40.0,45.0,50.0,55.0,60.0,65.0,70.0,75.0,80.0,85.0,90.0,95.0,100.0,105.0,110.0,115.0,120.0,125.0,130.0,135.0,140.0,145.0,150.0,155.0,160.0,165.0,170.0,175.0,180.0,185.0,190.0,195.0,200.0,205.0,210.0,215.0,220.0,225.0,230.0,235.0,240.0,245.0
binCenters=2.75,7.5,12.5,17.5,22.5,27.5,32.5,37.5,42.5,47.5,52.5,57.5,62.5,67.5,72.5,77.5,82.5,87.5,92.5,97.5,102.5,107.5,112.5,117.5,122.5,127.5,132.5,137.5,142.5,147.5,152.5,157.5,162.5,167.5,172.5,177.5,182.5,187.5,192.5,197.5,202.5,207.5,212.5,217.5,222.5,227.5,232.5,237.5,242.5
crosssection=0.497367457,0.794654052,0.953127079,0.929093317,0.842270457,0.735293103,0.62959011,0.532955874,0.449028949,0.378597127,0.320571211,0.273199006,0.23479361,0.204117313,0.178510333,0.156863784,0.138152909,0.122081552,0.108201664,0.096158974,0.0856692597,0.0765004876,0.0684607224,0.0613917412,0.0551610819,0.0496567464,0.0447859501,0.0404702877,0.0366443233,0.0332598999,0.03031568,0.0277502173,0.0252416598,0.0229953566,0.0209756135,0.0191534593,0.0175050046,0.016010279,0.0146524082,0.0134169366,0.0122913645,0.0112647737,0.0103275704,0.0094712615,0.00868830143,0.0079719539,0.00731617852,0.00671552913,0.00616509704
crosssection_integrated=2.486837285,3.97327026,4.765635395,4.645466585,4.211352285,3.676465515,3.14795055,2.66477937,2.245144745,1.892985635,1.602856055,1.36599503,1.17396805,1.020586565,0.892551665,0.78431892,0.690764545,0.61040776,0.54100832,0.48079487,0.4283462985,0.382502438,0.342303612,0.306958706,0.2758054095,0.248283732,0.2239297505,0.2023514385,0.1832216165,0.1662994995,0.1515784,0.1387510865,0.126208299,0.114976783,0.1048780675,0.0957672965,0.087525023,0.080051395,0.073262041,0.067084683,0.0614568225,0.0563238685,0.051637852,0.0473563075,0.04344150715,0.0398597695,0.0365808926,0.03357764565,0.0308254852
ratios=0.943589434001,0.821290055522,0.900872884257,0.976528262299,1.04694996835,1.10720822232,1.15830365009,1.20017254731,1.23197977135,1.25411388583,1.26434237923,1.26136716529,1.24721785295,1.24311858392,1.24374129,1.2445795054,1.24321653832,1.24159478956,1.23970659346,1.23755339369,1.23514175855,1.2324760757,1.22955053549,1.22635461153,1.22285488918,1.21896671324,1.21448176121,1.20861548931,1.19678568423,1.19537512429,1.19678846581,1.20145204842,1.19694029826,1.19292467143,1.18924443413,1.18576954533,1.18239503484,1.17903648682,1.17562655772,1.17211095866,1.16844602001,1.16459613889,1.16053229956,1.15623044436,1.15167075595,1.14683657988,1.14171364952,1.13628879557,1.13055000497