file=suppliedInput/fromPier/histograms_ggH_May17/H125-LHC13-R04-MSbar-xmur025-xmuf025_1_10-xQ050-NNLO+NNLLmult.1_10.res
kappab=1.0
kappac=10.0
muR=0.5
muF=0.5
Q=1.0
binBoundaries=0.0,5.0,10.0,15.0,20.0,25.0,30.0,35.0,40.0,45.0,50.0,55.0,60.0,65.0,70.0,75.0,80.0,85.0,90.0,95.0,100.0,105.0,110.0,115.0,120.0,125.0,130.0,135.0,140.0,145.0,150.0,155.0,160.0,165.0,170.0,175.0,180.0,185.0,190.0,195.0,200.0,205.0,210.0,215.0,220.0,225.0,230.0,235.0,240.0,245.0
binCenters=2.75,7.5,12.5,17.5,22.5,27.5,32.5,37.5,42.5,47.5,52.5,57.5,62.5,67.5,72.5,77.5,82.5,87.5,92.5,97.5,102.5,107.5,112.5,117.5,122.5,127.5,132.5,137.5,142.5,147.5,152.5,157.5,162.5,167.5,172.5,177.5,182.5,187.5,192.5,197.5,202.5,207.5,212.5,217.5,222.5,227.5,232.5,237.5,242.5
crosssection=0.412397853,0.719353996,0.918617258,0.911291179,0.829085374,0.72343051,0.618579455,0.522989012,0.440406176,0.371522553,0.315155838,0.269478451,0.232648593,0.202859716,0.177850263,0.15664762,0.13827382,0.122449987,0.108749362,0.096832206,0.0864263095,0.0773085717,0.0692957719,0.0622344247,0.0559964301,0.0504747661,0.0455785415,0.0412313177,0.0373700783,0.0339475112,0.0309612565,0.0283522356,0.0258100796,0.0235302375,0.0214773537,0.0196226055,0.0179422195,0.0164164453,0.0150284857,0.0137639811,0.0126104801,0.0115571085,0.0105943158,0.00971361944,0.00890747001,0.00816912017,0.00749250963,0.00687218039,0.00630320535
crosssection_integrated=2.061989265,3.59676998,4.59308629,4.556455895,4.14542687,3.61715255,3.092897275,2.61494506,2.20203088,1.857612765,1.57577919,1.347392255,1.163242965,1.01429858,0.889251315,0.7832381,0.6913691,0.612249935,0.54374681,0.48416103,0.4321315475,0.3865428585,0.3464788595,0.3111721235,0.2799821505,0.2523738305,0.2278927075,0.2061565885,0.1868503915,0.169737556,0.1548062825,0.141761178,0.129050398,0.1176511875,0.1073867685,0.0981130275,0.0897110975,0.0820822265,0.0751424285,0.0688199055,0.0630524005,0.0577855425,0.052971579,0.0485680972,0.04453735005,0.04084560085,0.03746254815,0.03436090195,0.03151602675
ratios=0.782387852721,0.74346601748,0.868255028081,0.957817234496,1.03056078823,1.08934546738,1.13804653094,1.17772799845,1.20832187149,1.23067915572,1.24298398725,1.2441892627,1.23582357566,1.23545954619,1.23914236119,1.24286442957,1.2443045976,1.24534185018,1.24598177257,1.2462178013,1.24605657005,1.24549487272,1.24454797524,1.24318796364,1.24137355479,1.23904734392,1.23597483655,1.23134309265,1.22048848772,1.2200881705,1.22227423783,1.22751656936,1.2238943326,1.22067256128,1.21769136086,1.21481386926,1.21192720228,1.20894757627,1.2058008943,1.202428957,1.19878189954,1.19481884806,1.19050707973,1.18581696023,1.18072246948,1.17520070411,1.16923069747,1.16279468485,1.15587618386