file=suppliedInput/fromPier/histograms_ggH_May17/H125-LHC13-R04-MSbar-xmur100-xmuf100_-1_-5-xQ050-NNLO+NNLLmult.-1_-5.res
kappab=-1.0
kappac=-5.0
muR=2.0
muF=2.0
Q=1.0
binBoundaries=0.0,5.0,10.0,15.0,20.0,25.0,30.0,35.0,40.0,45.0,50.0,55.0,60.0,65.0,70.0,75.0,80.0,85.0,90.0,95.0,100.0,105.0,110.0,115.0,120.0,125.0,130.0,135.0,140.0,145.0,150.0,155.0,160.0,165.0,170.0,175.0,180.0,185.0,190.0,195.0,200.0,205.0,210.0,215.0,220.0,225.0,230.0,235.0,240.0,245.0
binCenters=2.75,7.5,12.5,17.5,22.5,27.5,32.5,37.5,42.5,47.5,52.5,57.5,62.5,67.5,72.5,77.5,82.5,87.5,92.5,97.5,102.5,107.5,112.5,117.5,122.5,127.5,132.5,137.5,142.5,147.5,152.5,157.5,162.5,167.5,172.5,177.5,182.5,187.5,192.5,197.5,202.5,207.5,212.5,217.5,222.5,227.5,232.5,237.5,242.5
crosssection=0.842739994,1.35515647,1.24099944,0.993441669,0.776172778,0.606837906,0.476843041,0.376704242,0.301225319,0.245273021,0.204043552,0.17428216,0.152659371,0.132714399,0.115612058,0.10122655,0.0890266672,0.0786087496,0.0696594178,0.0619315167,0.0552291581,0.0493931946,0.0442943076,0.0398286062,0.0359136829,0.032500742,0.0295703985,0.0267967785,0.0243332879,0.0221347595,0.0201651233,0.0183965784,0.0168021141,0.0153628074,0.0140610302,0.0128817647,0.011811992,0.0108403351,0.00995680713,0.00915258356,0.00841983843,0.00775160571,0.00714167433,0.00658448765,0.00607507673,0.00560897735,0.00518217864,0.00479107107,0.00443240376
crosssection_integrated=4.21369997,6.77578235,6.2049972,4.967208345,3.88086389,3.03418953,2.384215205,1.88352121,1.506126595,1.226365105,1.02021776,0.8714108,0.763296855,0.663571995,0.57806029,0.50613275,0.445133336,0.393043748,0.348297089,0.3096575835,0.2761457905,0.246965973,0.221471538,0.199143031,0.1795684145,0.16250371,0.1478519925,0.1339838925,0.1216664395,0.1106737975,0.1008256165,0.091982892,0.0840105705,0.076814037,0.070305151,0.0644088235,0.05905996,0.0542016755,0.04978403565,0.0457629178,0.04209919215,0.03875802855,0.03570837165,0.03292243825,0.03037538365,0.02804488675,0.0259108932,0.02395535535,0.0221620188
ratios=1.59881902758,1.40057995009,1.1729629443,1.04416192537,0.964789942009,0.913779710972,0.877283531205,0.848306795663,0.826457849663,0.812473945305,0.804753830507,0.804665424443,0.810922805483,0.8082593942,0.805507937498,0.803145801535,0.80113712998,0.799467342266,0.798113784491,0.797050503769,0.796269743635,0.795758727252,0.795523151368,0.795611818943,0.796163186252,0.797823569318,0.801874462189,0.800266155726,0.794713286708,0.795532787772,0.79606945901,0.796484098257,0.796743463847,0.796972723177,0.797211576363,0.79749584825,0.797854157227,0.798309049594,0.798878022803,0.799574732338,0.80040964554,0.801391161554,0.802525997103,0.803819542039,0.805276873333,0.806901354598,0.80869597036,0.810664397436,0.812810254302