file=suppliedInput/fromPier/histograms_ggH_May17/H125-LHC13-R04-MSbar-xmur025-xmuf050_2_-10-xQ050-NNLO+NNLLmult.2_-10.res
kappab=2.0
kappac=-10.0
muR=0.5
muF=1.0
Q=1.0
binBoundaries=0.0,5.0,10.0,15.0,20.0,25.0,30.0,35.0,40.0,45.0,50.0,55.0,60.0,65.0,70.0,75.0,80.0,85.0,90.0,95.0,100.0,105.0,110.0,115.0,120.0,125.0,130.0,135.0,140.0,145.0,150.0,155.0,160.0,165.0,170.0,175.0,180.0,185.0,190.0,195.0,200.0,205.0,210.0,215.0,220.0,225.0,230.0,235.0,240.0,245.0
binCenters=2.75,7.5,12.5,17.5,22.5,27.5,32.5,37.5,42.5,47.5,52.5,57.5,62.5,67.5,72.5,77.5,82.5,87.5,92.5,97.5,102.5,107.5,112.5,117.5,122.5,127.5,132.5,137.5,142.5,147.5,152.5,157.5,162.5,167.5,172.5,177.5,182.5,187.5,192.5,197.5,202.5,207.5,212.5,217.5,222.5,227.5,232.5,237.5,242.5
crosssection=0.540712765,0.8666619,0.998605348,0.953054531,0.855453426,0.743270479,0.634881762,0.536629968,0.451605511,0.380384723,0.321777617,0.273974938,0.235256113,0.204380254,0.17863838,0.15689875,0.13812427,0.122010373,0.108103015,0.0960436489,0.0855449573,0.0763726554,0.0683331642,0.0612670588,0.0550409998,0.0495423508,0.044677866,0.0403688096,0.0365495125,0.0331716581,0.0302338153,0.0276743494,0.0251713569,0.022930266,0.0209153773,0.0190977326,0.0174534618,0.0159626153,0.0146083391,0.0133761971,0.0122537078,0.01122997,0.0102954059,0.00944153722,0.00866083246,0.00794656845,0.00729271713,0.00669384394,0.00614505103
crosssection_integrated=2.703563825,4.3333095,4.99302674,4.765272655,4.27726713,3.716352395,3.17440881,2.68314984,2.258027555,1.901923615,1.608888085,1.36987469,1.176280565,1.02190127,0.8931919,0.78449375,0.69062135,0.610051865,0.540515075,0.4802182445,0.4277247865,0.381863277,0.341665821,0.306335294,0.275204999,0.247711754,0.22338933,0.201844048,0.1827475625,0.1658582905,0.1511690765,0.138371747,0.1258567845,0.11465133,0.1045768865,0.095488663,0.087267309,0.0798130765,0.0730416955,0.0668809855,0.061268539,0.05614985,0.0514770295,0.0472076861,0.0433041623,0.03973284225,0.03646358565,0.0334692197,0.03072525515
ratios=1.02582274876,0.895711534067,0.943857854748,1.0017128183,1.06333652075,1.11922059706,1.168039095,1.20844630311,1.23904896426,1.26003534905,1.26910048033,1.26494966423,1.24967465745,1.24471995148,1.24463343635,1.2448569306,1.24295882041,1.24087088432,1.23857633528,1.23606917477,1.23334962114,1.23041661002,1.22725959774,1.22386396974,1.22019281334,1.2161585464,1.21155079363,1.20558492021,1.19368920985,1.192203676,1.19355664885,1.19816733022,1.19360658825,1.18954798178,1.1858292508,1.18231956678,1.178913519,1.17552641423,1.1720907018,1.16855193354,1.16486628553,1.16099799696,1.1569179024,1.15260177067,1.14802962889,1.14318465677,1.13805242268,1.13261959275,1.1268739855