file=suppliedInput/fromPier/histograms_ggH_May17/H125-LHC13-R04-MSbar-xmur100-xmuf050_2_5-xQ050-NNLO+NNLLmult.2_5.res
kappab=2.0
kappac=5.0
muR=2.0
muF=1.0
Q=1.0
binBoundaries=0.0,5.0,10.0,15.0,20.0,25.0,30.0,35.0,40.0,45.0,50.0,55.0,60.0,65.0,70.0,75.0,80.0,85.0,90.0,95.0,100.0,105.0,110.0,115.0,120.0,125.0,130.0,135.0,140.0,145.0,150.0,155.0,160.0,165.0,170.0,175.0,180.0,185.0,190.0,195.0,200.0,205.0,210.0,215.0,220.0,225.0,230.0,235.0,240.0,245.0
binCenters=2.75,7.5,12.5,17.5,22.5,27.5,32.5,37.5,42.5,47.5,52.5,57.5,62.5,67.5,72.5,77.5,82.5,87.5,92.5,97.5,102.5,107.5,112.5,117.5,122.5,127.5,132.5,137.5,142.5,147.5,152.5,157.5,162.5,167.5,172.5,177.5,182.5,187.5,192.5,197.5,202.5,207.5,212.5,217.5,222.5,227.5,232.5,237.5,242.5
crosssection=0.444763774,0.917610642,1.00159097,0.875149493,0.713053064,0.568610703,0.451402221,0.359198087,0.289118731,0.237052321,0.198749096,0.171211141,0.15124267,0.132262429,0.115792686,0.101839603,0.0899293578,0.079696962,0.0708579215,0.0631865794,0.0565017818,0.0506561747,0.0455290039,0.0410220178,0.0370572582,0.0335882955,0.0305978883,0.0277716944,0.0252555233,0.0230052514,0.0209854256,0.0191669264,0.0175255889,0.0160410591,0.0146959937,0.0134754583,0.0123664662,0.0113576411,0.0104389739,0.00960160137,0.00883764717,0.0081400829,0.00750262646,0.00691964582,0.00638608754,0.00589740977,0.00544952182,0.00503872975,0.00466170032
crosssection_integrated=2.22381887,4.58805321,5.00795485,4.375747465,3.56526532,2.843053515,2.257011105,1.795990435,1.445593655,1.185261605,0.99374548,0.856055705,0.75621335,0.661312145,0.57896343,0.509198015,0.449646789,0.39848481,0.3542896075,0.315932897,0.282508909,0.2532808735,0.2276450195,0.205110089,0.185286291,0.1679414775,0.1529894415,0.138858472,0.1262776165,0.115026257,0.104927128,0.095834632,0.0876279445,0.0802052955,0.0734799685,0.0673772915,0.061832331,0.0567882055,0.0521948695,0.04800800685,0.04418823585,0.0407004145,0.0375131323,0.0345982291,0.0319304377,0.02948704885,0.0272476091,0.02519364875,0.0233085016
ratios=0.843791429991,0.948368026588,0.946679793146,0.919830331372,0.886331553702,0.85621698761,0.830478166572,0.808884382542,0.793241569177,0.785242639819,0.783872338763,0.790486447048,0.803397324787,0.805506799145,0.806766433283,0.808009850967,0.809260302275,0.810534688836,0.811845485873,0.813202996241,0.814617873177,0.816106215303,0.817698224075,0.81945127667,0.821514876222,0.824520677193,0.829737388378,0.829381304752,0.824833044008,0.826818641496,0.828452975762,0.829836492316,0.831050088283,0.832158226079,0.833211801493,0.834250764378,0.835306734705,0.836404741046,0.837564363801,0.838801175111,0.840127527096,0.841553445109,0.843086999279,0.844734902662,0.846502659241,0.848394927469,0.85041575028,0.852569030379,0.854858453278