file=suppliedInput/fromPier/histograms_ggH_May17/H125-LHC13-R04-MSbar-xmur050-xmuf050_-2_-10-xQ100-NNLO+NNLLmult.-2_-10.res
kappab=-2.0
kappac=-10.0
muR=1.0
muF=1.0
Q=2.0
binBoundaries=0.0,5.0,10.0,15.0,20.0,25.0,30.0,35.0,40.0,45.0,50.0,55.0,60.0,65.0,70.0,75.0,80.0,85.0,90.0,95.0,100.0,105.0,110.0,115.0,120.0,125.0,130.0,135.0,140.0,145.0,150.0,155.0,160.0,165.0,170.0,175.0,180.0,185.0,190.0,195.0,200.0,205.0,210.0,215.0,220.0,225.0,230.0,235.0,240.0,245.0
binCenters=2.75,7.5,12.5,17.5,22.5,27.5,32.5,37.5,42.5,47.5,52.5,57.5,62.5,67.5,72.5,77.5,82.5,87.5,92.5,97.5,102.5,107.5,112.5,117.5,122.5,127.5,132.5,137.5,142.5,147.5,152.5,157.5,162.5,167.5,172.5,177.5,182.5,187.5,192.5,197.5,202.5,207.5,212.5,217.5,222.5,227.5,232.5,237.5,242.5
crosssection=0.840379884,1.46118952,1.40292358,1.14907379,0.917450946,0.737146107,0.601248113,0.493483005,0.406818521,0.337177176,0.280496486,0.23407698,0.19613582,0.165436021,0.139862131,0.119039458,0.102030147,0.0881480559,0.0768446218,0.0677264262,0.060362283,0.0544641356,0.049765274,0.0460477507,0.0431370731,0.0398452434,0.0360417114,0.0327069173,0.0298967469,0.0271535738,0.0247099794,0.0225227432,0.0205573781,0.0187857926,0.0171847435,0.0157347162,0.0144190958,0.0132235825,0.0121357789,0.0111448344,0.0102411963,0.00941640161,0.00866292902,0.00797406383,0.00734380127,0.00676675685,0.00623808825,0.00575342489,0.00530882476
crosssection_integrated=4.20189942,7.3059476,7.0146179,5.74536895,4.58725473,3.685730535,3.006240565,2.467415025,2.034092605,1.68588588,1.40248243,1.1703849,0.9806791,0.827180105,0.699310655,0.59519729,0.510150735,0.4407402795,0.384223109,0.338632131,0.301811415,0.272320678,0.24882637,0.2302387535,0.2156853655,0.199226217,0.180208557,0.1635345865,0.1494837345,0.135767869,0.123549897,0.112613716,0.1027868905,0.093928963,0.0859237175,0.078673581,0.072095479,0.0661179125,0.0606788945,0.055724172,0.0512059815,0.04708200805,0.0433146451,0.03987031915,0.03671900635,0.03383378425,0.03119044125,0.02876712445,0.0265441238
ratios=1.59434150331,1.51016712114,1.32600976276,1.20773985871,1.14040001154,1.10999848549,1.10616077483,1.11128291113,1.11616898999,1.11690910535,1.10628647335,1.08073971808,1.04186862797,1.00754114941,0.974466319732,0.944475939461,0.918153422001,0.89648407251,0.880437331513,0.871630229607,0.870276883863,0.877455114555,0.893781385154,0.919844759536,0.956297065398,0.978115339943,0.977360110492,0.97676812059,0.976413137773,0.975911134841,0.97548919689,0.975127353461,0.974815224889,0.974546116191,0.974315271368,0.974118929753,0.973953887497,0.973817274136,0.973706422775,0.973618861157,0.973552208695,0.973504239794,0.973472806007,0.973455897669,0.973451626689,0.973458248766,0.973474127577,0.973497711367,0.973527556799