file=suppliedInput/fromPier/histograms_ggH_May17/H125-LHC13-R04-MSbar-xmur025-xmuf025_1_5-xQ050-NNLO+NNLLmult.1_5.res
kappab=1.0
kappac=5.0
muR=0.5
muF=0.5
Q=1.0
binBoundaries=0.0,5.0,10.0,15.0,20.0,25.0,30.0,35.0,40.0,45.0,50.0,55.0,60.0,65.0,70.0,75.0,80.0,85.0,90.0,95.0,100.0,105.0,110.0,115.0,120.0,125.0,130.0,135.0,140.0,145.0,150.0,155.0,160.0,165.0,170.0,175.0,180.0,185.0,190.0,195.0,200.0,205.0,210.0,215.0,220.0,225.0,230.0,235.0,240.0,245.0
binCenters=2.75,7.5,12.5,17.5,22.5,27.5,32.5,37.5,42.5,47.5,52.5,57.5,62.5,67.5,72.5,77.5,82.5,87.5,92.5,97.5,102.5,107.5,112.5,117.5,122.5,127.5,132.5,137.5,142.5,147.5,152.5,157.5,162.5,167.5,172.5,177.5,182.5,187.5,192.5,197.5,202.5,207.5,212.5,217.5,222.5,227.5,232.5,237.5,242.5
crosssection=0.447399875,0.783474411,0.960675827,0.933771402,0.841593644,0.731092525,0.623715918,0.526580392,0.442933568,0.373276328,0.31633577,0.270232373,0.233093393,0.203111134,0.177970958,0.156677693,0.138241667,0.12237599,0.108648181,0.0967143936,0.0862994365,0.0771780282,0.0691653471,0.0621067311,0.0558732167,0.0503571501,0.0454671802,0.0411265365,0.0372719668,0.0338559956,0.0308761644,0.0282732061,0.0257366967,0.0234621568,0.0214142232,0.0195640846,0.0178879855,0.0163661949,0.0149819353,0.0137208653,0.0125705514,0.0115201358,0.0105600834,0.00968192596,0.00887812799,0.00814195493,0.00746735863,0.00684889252,0.00628164026
crosssection_integrated=2.236999375,3.917372055,4.803379135,4.66885701,4.20796822,3.655462625,3.11857959,2.63290196,2.21466784,1.86638164,1.58167885,1.351161865,1.165466965,1.01555567,0.88985479,0.783388465,0.691208335,0.61187995,0.543240905,0.483571968,0.4314971825,0.385890141,0.3458267355,0.3105336555,0.2793660835,0.2517857505,0.227335901,0.2056326825,0.186359834,0.169279978,0.154380822,0.1413660305,0.1286834835,0.117310784,0.107071116,0.097820423,0.0894399275,0.0818309745,0.0749096765,0.0686043265,0.062852757,0.057600679,0.052800417,0.0484096298,0.04439063995,0.04070977465,0.03733679315,0.0342444626,0.0314082013
ratios=0.848792555447,0.809735684215,0.908007780046,0.981445187362,1.04610868354,1.10088296987,1.14749646312,1.18581548916,1.21525615897,1.23648858591,1.24763767411,1.24767014087,1.23818634227,1.23699073619,1.23998328369,1.24310303302,1.24401525776,1.24458928529,1.24482250433,1.24470157116,1.24422737086,1.24339172612,1.24220555353,1.24063717045,1.2386420618,1.23616012316,1.23295499958,1.22821387889,1.21728421409,1.21679906043,1.21891501106,1.22409496895,1.22041457133,1.21714075492,1.21411208077,1.21119090487,1.20826390634,1.20524701271,1.20206595287,1.19866233701,1.1949861834,1.19099646646,1.186660308,1.181947891,1.1768330618,1.17129274236,1.16530580144,1.1588543035,1.15192159686