file=suppliedInput/fromPier/histograms_ggH_May17/H125-LHC13-R04-MSbar-xmur025-xmuf025_0_-10-xQ050-NNLO+NNLLmult.0_-10.res
kappab=0.0
kappac=-10.0
muR=0.5
muF=0.5
Q=1.0
binBoundaries=0.0,5.0,10.0,15.0,20.0,25.0,30.0,35.0,40.0,45.0,50.0,55.0,60.0,65.0,70.0,75.0,80.0,85.0,90.0,95.0,100.0,105.0,110.0,115.0,120.0,125.0,130.0,135.0,140.0,145.0,150.0,155.0,160.0,165.0,170.0,175.0,180.0,185.0,190.0,195.0,200.0,205.0,210.0,215.0,220.0,225.0,230.0,235.0,240.0,245.0
binCenters=2.75,7.5,12.5,17.5,22.5,27.5,32.5,37.5,42.5,47.5,52.5,57.5,62.5,67.5,72.5,77.5,82.5,87.5,92.5,97.5,102.5,107.5,112.5,117.5,122.5,127.5,132.5,137.5,142.5,147.5,152.5,157.5,162.5,167.5,172.5,177.5,182.5,187.5,192.5,197.5,202.5,207.5,212.5,217.5,222.5,227.5,232.5,237.5,242.5
crosssection=0.629431907,1.13834954,1.1971014,1.06088578,0.912134965,0.773841049,0.651940192,0.546010532,0.456412257,0.382499109,0.32244097,0.274043989,0.235249137,0.204202916,0.178345615,0.156563161,0.137798618,0.121719126,0.107859372,0.0958520066,0.0854048215,0.0762801402,0.0682840929,0.0612554135,0.0550603316,0.0495877128,0.0447437067,0.0404497702,0.0366414175,0.0332703458,0.0303336347,0.0277709567,0.0252717142,0.0230319254,0.0210162559,0.0191960204,0.017547615,0.0160514622,0.0146909312,0.0134518177,0.0123218152,0.0112901836,0.0103474972,0.00948538966,0.00869642019,0.00797394298,0.00731199276,0.00670520044,0.00614872211
crosssection_integrated=3.147159535,5.6917477,5.985507,5.3044289,4.560674825,3.869205245,3.25970096,2.73005266,2.282061285,1.912495545,1.61220485,1.370219945,1.176245685,1.02101458,0.891728075,0.782815805,0.68899309,0.60859563,0.53929686,0.479260033,0.4270241075,0.381400701,0.3414204645,0.3062770675,0.275301658,0.247938564,0.2237185335,0.202248851,0.1832070875,0.166351729,0.1516681735,0.1388547835,0.126358571,0.115159627,0.1050812795,0.095980102,0.087738075,0.080257311,0.073454656,0.0672590885,0.061609076,0.056450918,0.051737486,0.0474269483,0.04348210095,0.0398697149,0.0365599638,0.0335260022,0.03074361055
ratios=1.19413783212,1.17650587014,1.13147156841,1.1150494017,1.13379219799,1.16525392218,1.19942275465,1.22957055737,1.25223700893,1.26703931357,1.27171676427,1.26526847455,1.24963760111,1.24363992471,1.24259364452,1.24219431989,1.24002832872,1.23790884172,1.23578482707,1.23360276348,1.23132920473,1.22892612579,1.22637828009,1.22363134452,1.22062137612,1.21727208629,1.21333622698,1.20800274921,1.19669078222,1.19575055444,1.1974972732,1.20234996552,1.19836545504,1.19482174241,1.19154871705,1.1884044561,1.18527320177,1.18206931938,1.17871742587,1.17515819074,1.17134073517,1.16722311323,1.16277151887,1.15795517857,1.15274693161,1.14712272676,1.14106044795,1.13454114852,1.12754718488