file=suppliedInput/fromPier/histograms_ggH_May17/H125-LHC13-R04-MSbar-xmur050-xmuf050_-2_10-xQ025-NNLO+NNLLmult.-2_10.res
kappab=-2.0
kappac=10.0
muR=1.0
muF=1.0
Q=0.5
binBoundaries=0.0,5.0,10.0,15.0,20.0,25.0,30.0,35.0,40.0,45.0,50.0,55.0,60.0,65.0,70.0,75.0,80.0,85.0,90.0,95.0,100.0,105.0,110.0,115.0,120.0,125.0,130.0,135.0,140.0,145.0,150.0,155.0,160.0,165.0,170.0,175.0,180.0,185.0,190.0,195.0,200.0,205.0,210.0,215.0,220.0,225.0,230.0,235.0,240.0,245.0
binCenters=2.75,7.5,12.5,17.5,22.5,27.5,32.5,37.5,42.5,47.5,52.5,57.5,62.5,67.5,72.5,77.5,82.5,87.5,92.5,97.5,102.5,107.5,112.5,117.5,122.5,127.5,132.5,137.5,142.5,147.5,152.5,157.5,162.5,167.5,172.5,177.5,182.5,187.5,192.5,197.5,202.5,207.5,212.5,217.5,222.5,227.5,232.5,237.5,242.5
crosssection=0.600293701,1.14213153,1.2557289,1.1020026,0.882335406,0.684907948,0.538055326,0.436949859,0.361183842,0.302642552,0.256403619,0.219226254,0.188909451,0.164022305,0.142998095,0.125287934,0.110246976,0.0973831875,0.0863160832,0.0767460194,0.0684338952,0.0611860179,0.0548437352,0.0492772024,0.0443791357,0.0400608106,0.036252402,0.0329100815,0.0300907307,0.0273380082,0.0248843818,0.0226870189,0.0207116453,0.018930301,0.0173198265,0.0158607619,0.0145365265,0.0133328402,0.0122373148,0.0112391005,0.0103286391,0.00949745721,0.00873801974,0.00804359528,0.00740816066,0.00682631177,0.00629318605,0.00580439249,0.00535596877
crosssection_integrated=3.001468505,5.71065765,6.2786445,5.510013,4.41167703,3.42453974,2.69027663,2.184749295,1.80591921,1.51321276,1.282018095,1.09613127,0.944547255,0.820111525,0.714990475,0.62643967,0.55123488,0.4869159375,0.431580416,0.383730097,0.342169476,0.3059300895,0.274218676,0.246386012,0.2218956785,0.200304053,0.18126201,0.1645504075,0.1504536535,0.136690041,0.124421909,0.1134350945,0.1035582265,0.094651505,0.0865991325,0.0793038095,0.0726826325,0.066664201,0.061186574,0.0561955025,0.0516431955,0.04748728605,0.0436900987,0.0402179764,0.0370408033,0.03413155885,0.03146593025,0.02902196245,0.02677984385
ratios=1.13885777123,1.18041462864,1.18688487707,1.15826544475,1.09675107053,1.03133799088,0.989900314759,0.983974942214,0.990963250975,1.00251216884,1.01126349019,1.01217351635,1.00348233445,0.998931313207,0.996315631451,0.994052234073,0.992095388039,0.990407282754,0.988955377476,0.987711212069,0.986649843334,0.98574931474,0.984990248704,0.984355928426,0.98383210044,0.983407052757,0.983073507001,0.982835470563,0.982748553846,0.982539786596,0.982374174589,0.982239707723,0.982130458113,0.982042744253,0.981974008305,0.981922280053,0.981885874937,0.981863281002,0.981853090474,0.981853999485,0.981864726938,0.981884083128,0.981910918997,0.981944141746,0.981982733481,0.982025754502,0.982072319946,0.982121590692,0.982172783369