file=suppliedInput/fromPier/histograms_ggH_May17/H125-LHC13-R04-MSbar-xmur050-xmuf050_1_10-xQ100-NNLO+NNLLmult.1_10.res
kappab=1.0
kappac=10.0
muR=1.0
muF=1.0
Q=2.0
binBoundaries=0.0,5.0,10.0,15.0,20.0,25.0,30.0,35.0,40.0,45.0,50.0,55.0,60.0,65.0,70.0,75.0,80.0,85.0,90.0,95.0,100.0,105.0,110.0,115.0,120.0,125.0,130.0,135.0,140.0,145.0,150.0,155.0,160.0,165.0,170.0,175.0,180.0,185.0,190.0,195.0,200.0,205.0,210.0,215.0,220.0,225.0,230.0,235.0,240.0,245.0
binCenters=2.75,7.5,12.5,17.5,22.5,27.5,32.5,37.5,42.5,47.5,52.5,57.5,62.5,67.5,72.5,77.5,82.5,87.5,92.5,97.5,102.5,107.5,112.5,117.5,122.5,127.5,132.5,137.5,142.5,147.5,152.5,157.5,162.5,167.5,172.5,177.5,182.5,187.5,192.5,197.5,202.5,207.5,212.5,217.5,222.5,227.5,232.5,237.5,242.5
crosssection=0.43793601,0.83223376,0.973206713,0.908389373,0.787418057,0.665284878,0.558817061,0.46705049,0.389575932,0.325422485,0.272323507,0.22842274,0.192319466,0.162960122,0.138455017,0.11842975,0.102022252,0.0885856904,0.0776010503,0.0686870991,0.061446652,0.0556055131,0.0509151166,0.0471721433,0.0442132601,0.0408613339,0.036994565,0.0335957778,0.0307227533,0.0279208197,0.0254212604,0.0231813318,0.0211666182,0.0193489603,0.0177049896,0.0162150437,0.0148623519,0.0136324567,0.0125128052,0.0114923935,0.01056152,0.00971157696,0.00893490351,0.00822465076,0.00757468567,0.0069795016,0.00643414051,0.00593412259,0.00547540311
crosssection_integrated=2.18968005,4.1611688,4.866033565,4.541946865,3.937090285,3.32642439,2.794085305,2.33525245,1.94787966,1.627112425,1.361617535,1.1421137,0.96159733,0.81480061,0.692275085,0.59214875,0.51011126,0.442928452,0.3880052515,0.3434354955,0.30723326,0.2780275655,0.254575583,0.2358607165,0.2210663005,0.2043066695,0.184972825,0.167978889,0.1536137665,0.1396040985,0.127106302,0.115906659,0.105833091,0.0967448015,0.088524948,0.0810752185,0.0743117595,0.0681622835,0.062564026,0.0574619675,0.0528076,0.0485578848,0.04467451755,0.0411232538,0.03787342835,0.034897508,0.03217070255,0.02967061295,0.02737701555
ratios=0.830838017222,0.860129397487,0.919851673334,0.954767276522,0.978767927815,1.00178946886,1.02809721946,1.05175907359,1.06886130326,1.07797135291,1.07405200138,1.05463393978,1.02159624985,0.992462389001,0.964662485118,0.939638429733,0.918082376124,0.900934906449,0.889104013376,0.883993963934,0.885910839826,0.895843500122,0.914432490415,0.942305501375,0.980154837749,1.00305818431,1.0031990916,1.00331328815,1.00339010298,1.00348628287,1.00356882092,1.00364109856,1.00370492679,1.00376143366,1.00381141835,1.00385547564,1.00389411452,1.00392778004,1.00395688571,1.00398181524,1.00400293305,1.00402061607,1.00403519078,1.00404699025,1.00405632125,1.00406347611,1.00406872565,1.00407233444,1.00407454628