file=suppliedInput/fromPier/histograms_ggH_May17/H125-LHC13-R04-MSbar-xmur050-xmuf100_-2_-10-xQ050-NNLO+NNLLmult.-2_-10.res
kappab=-2.0
kappac=-10.0
muR=1.0
muF=2.0
Q=1.0
binBoundaries=0.0,5.0,10.0,15.0,20.0,25.0,30.0,35.0,40.0,45.0,50.0,55.0,60.0,65.0,70.0,75.0,80.0,85.0,90.0,95.0,100.0,105.0,110.0,115.0,120.0,125.0,130.0,135.0,140.0,145.0,150.0,155.0,160.0,165.0,170.0,175.0,180.0,185.0,190.0,195.0,200.0,205.0,210.0,215.0,220.0,225.0,230.0,235.0,240.0,245.0
binCenters=2.75,7.5,12.5,17.5,22.5,27.5,32.5,37.5,42.5,47.5,52.5,57.5,62.5,67.5,72.5,77.5,82.5,87.5,92.5,97.5,102.5,107.5,112.5,117.5,122.5,127.5,132.5,137.5,142.5,147.5,152.5,157.5,162.5,167.5,172.5,177.5,182.5,187.5,192.5,197.5,202.5,207.5,212.5,217.5,222.5,227.5,232.5,237.5,242.5
crosssection=1.05471566,1.54700314,1.38111948,1.11519754,0.894613997,0.72011876,0.581819821,0.471296266,0.383995308,0.315621999,0.262883105,0.222544341,0.191718986,0.165868595,0.144198652,0.12599697,0.110583974,0.0974431583,0.086173183,0.076457516,0.0680456035,0.0607337766,0.0543567037,0.0487820036,0.0439051063,0.0396662507,0.0360447416,0.0325986702,0.0295433582,0.0268207499,0.0243848162,0.022200675,0.020233494,0.0184598488,0.0168575358,0.0154077143,0.0140940789,0.0129023938,0.0118201781,0.010836409,0.00994131505,0.00912620033,0.00838331508,0.00770572689,0.00708724056,0.00652229029,0.00600587715,0.00553350275,0.00510111846
crosssection_integrated=5.2735783,7.7350157,6.9055974,5.5759877,4.473069985,3.6005938,2.909099105,2.35648133,1.91997654,1.578109995,1.314415525,1.112721705,0.95859493,0.829342975,0.72099326,0.62998485,0.55291987,0.4872157915,0.430865915,0.38228758,0.3402280175,0.303668883,0.2717835185,0.243910018,0.2195255315,0.1983312535,0.180223708,0.162993351,0.147716791,0.1341037495,0.121924081,0.111003375,0.10116747,0.092299244,0.084287679,0.0770385715,0.0704703945,0.064511969,0.0591008905,0.054182045,0.04970657525,0.04563100165,0.0419165754,0.03852863445,0.0354362028,0.03261145145,0.03002938575,0.02766751375,0.0255055923
ratios=2.00097239706,1.59885712726,1.30540104973,1.17213405363,1.11201347271,1.08435861681,1.07041710417,1.06132020998,1.05355000564,1.0455069608,1.03681877546,1.02749321335,1.01840651493,1.01017561863,1.00468031425,0.999677826238,0.995127980621,0.99101719827,0.987318116887,0.983998211119,0.98105162415,0.978463392778,0.976243191696,0.974463892133,0.973323438364,0.973721452726,0.977442281857,0.973535400262,0.964871635596,0.96394930056,0.962652553699,0.961183336575,0.95945688735,0.957637206828,0.955763731217,0.953874602699,0.952000258945,0.950164145015,0.948384395361,0.946674648625,0.945044791717,0.943502102229,0.942051959069,0.94069792352,0.939443429666,0.938289556488,0.937236823947,0.936286188829,0.935438560474