file=suppliedInput/fromPier/histograms_ggH_May17/H125-LHC13-R04-MSbar-xmur050-xmuf050_-1_5-xQ050-NNLO+NNLLmult.-1_5.res
kappab=-1.0
kappac=5.0
muR=1.0
muF=1.0
Q=1.0
binBoundaries=0.0,5.0,10.0,15.0,20.0,25.0,30.0,35.0,40.0,45.0,50.0,55.0,60.0,65.0,70.0,75.0,80.0,85.0,90.0,95.0,100.0,105.0,110.0,115.0,120.0,125.0,130.0,135.0,140.0,145.0,150.0,155.0,160.0,165.0,170.0,175.0,180.0,185.0,190.0,195.0,200.0,205.0,210.0,215.0,220.0,225.0,230.0,235.0,240.0,245.0
binCenters=2.75,7.5,12.5,17.5,22.5,27.5,32.5,37.5,42.5,47.5,52.5,57.5,62.5,67.5,72.5,77.5,82.5,87.5,92.5,97.5,102.5,107.5,112.5,117.5,122.5,127.5,132.5,137.5,142.5,147.5,152.5,157.5,162.5,167.5,172.5,177.5,182.5,187.5,192.5,197.5,202.5,207.5,212.5,217.5,222.5,227.5,232.5,237.5,242.5
crosssection=0.624035785,1.13677691,1.16957513,1.01305531,0.839231644,0.684940181,0.556754685,0.452615885,0.36998019,0.305298946,0.255523859,0.217572841,0.188569663,0.164105627,0.143173774,0.125520362,0.110511452,0.0976626108,0.0865987324,0.0770240055,0.0687020641,0.0614411633,0.055084031,0.0495017912,0.0445878304,0.0402538782,0.036430406,0.0330737614,0.030240982,0.027476045,0.0250111189,0.0228033573,0.0208184289,0.0190283097,0.017409778,0.0159433161,0.0146122902,0.0134023721,0.0123011291,0.0112976706,0.0103824008,0.00954681137,0.00878333496,0.00808521027,0.00744638641,0.00686143361,0.00632546559,0.00583406941,0.00538326254
crosssection_integrated=3.120178925,5.68388455,5.84787565,5.06527655,4.19615822,3.424700905,2.783773425,2.263079425,1.84990095,1.52649473,1.277619295,1.087864205,0.942848315,0.820528135,0.71586887,0.62760181,0.55255726,0.488313054,0.432993662,0.3851200275,0.3435103205,0.3072058165,0.275420155,0.247508956,0.222939152,0.201269391,0.18215203,0.165368807,0.15120491,0.137380225,0.1250555945,0.1140167865,0.1040921445,0.0951415485,0.08704889,0.0797165805,0.073061451,0.0670118605,0.0615056455,0.056488353,0.051912004,0.04773405685,0.0439166748,0.04042605135,0.03723193205,0.03430716805,0.03162732795,0.02917034705,0.0269163127
ratios=1.18390048419,1.17488052717,1.10545439735,1.06477694262,1.04317269569,1.0313865275,1.02430291328,1.01925353702,1.01509738046,1.01131155046,1.00779369061,1.00453966402,1.001677389,0.999438762208,0.997539645895,0.995896350784,0.994475366424,0.993249075864,0.992193794187,0.991288856745,0.990516184749,0.989859884635,0.989305947096,0.988842289379,0.988458611114,0.988146448607,0.98790052554,0.987723650847,0.987655687849,0.987500888627,0.987377443507,0.987276605541,0.98719405516,0.987127118385,0.987073945941,0.987033119545,0.987003418448,0.986983781844,0.986973189834,0.986970715625,0.986975440594,0.986986508237,0.987003092126,0.987024406754,0.987049716798,0.987078344039,0.987109648015,0.987143019537,0.987177890606