file=suppliedInput/fromPier/histograms_ggH_May17/H125-LHC13-R04-MSbar-xmur100-xmuf100_1_1-xQ050-NNLO+NNLLmult.1_1.res
kappab=1.0
kappac=1.0
muR=2.0
muF=2.0
Q=1.0
binBoundaries=0.0,5.0,10.0,15.0,20.0,25.0,30.0,35.0,40.0,45.0,50.0,55.0,60.0,65.0,70.0,75.0,80.0,85.0,90.0,95.0,100.0,105.0,110.0,115.0,120.0,125.0,130.0,135.0,140.0,145.0,150.0,155.0,160.0,165.0,170.0,175.0,180.0,185.0,190.0,195.0,200.0,205.0,210.0,215.0,220.0,225.0,230.0,235.0,240.0,245.0
binCenters=2.75,7.5,12.5,17.5,22.5,27.5,32.5,37.5,42.5,47.5,52.5,57.5,62.5,67.5,72.5,77.5,82.5,87.5,92.5,97.5,102.5,107.5,112.5,117.5,122.5,127.5,132.5,137.5,142.5,147.5,152.5,157.5,162.5,167.5,172.5,177.5,182.5,187.5,192.5,197.5,202.5,207.5,212.5,217.5,222.5,227.5,232.5,237.5,242.5
crosssection=0.585229276,1.06652947,1.08493351,0.918638862,0.738076961,0.584927218,0.46295256,0.367608778,0.29526576,0.241450626,0.201726268,0.172993057,0.15203828,0.132500218,0.115666069,0.101456645,0.089368214,0.0790163963,0.0701014842,0.0623860787,0.0556812774,0.0498329376,0.0447153194,0.0402270784,0.036287601,0.0328493089,0.0298940493,0.0270967893,0.0246107501,0.0223909657,0.0204014127,0.0186142771,0.0170025086,0.0155471318,0.0142304609,0.0130374168,0.0119549185,0.0109715261,0.0100771907,0.00926302655,0.00852114808,0.00784453168,0.00722691104,0.00666267685,0.00614681028,0.0056748001,0.00524259138,0.00484653343,0.00448333706
crosssection_integrated=2.92614638,5.33264735,5.42466755,4.59319431,3.690384805,2.92463609,2.3147628,1.83804389,1.4763288,1.20725313,1.00863134,0.864965285,0.7601914,0.66250109,0.578330345,0.507283225,0.44684107,0.3950819815,0.350507421,0.3119303935,0.278406387,0.249164688,0.223576597,0.201135392,0.181438005,0.1642465445,0.1494702465,0.1354839465,0.1230537505,0.1119548285,0.1020070635,0.0930713855,0.085012543,0.077735659,0.0711523045,0.065187084,0.0597745925,0.0548576305,0.0503859535,0.04631513275,0.0426057404,0.0392226584,0.0361345552,0.03331338425,0.0307340514,0.0283740005,0.0262129569,0.02423266715,0.0224166853
ratios=1.11027803193,1.10227846373,1.0254531656,0.965540054131,0.917436489123,0.880786481726,0.851728182434,0.827824563023,0.810106885765,0.799812151792,0.795614393572,0.798713601189,0.807623585442,0.806954985585,0.805884250228,0.804971407892,0.804210656505,0.803613194038,0.803178703186,0.802900657138,0.802788201122,0.802843292906,0.803084498458,0.803571655405,0.804452501128,0.806380139759,0.810651053793,0.809225758448,0.803775066514,0.804740948924,0.805397583219,0.805909413606,0.806246018533,0.806534876447,0.806817708595,0.807132098128,0.807508286878,0.807970278842,0.808536921196,0.809223092671,0.81004037916,0.810998209929,0.812104237796,0.813364704894,0.814785455927,0.816370543511,0.818123576544,0.820048804386,0.822150357498