file=suppliedInput/fromQianying/13tev-pth_quarkInduced_Apr18/higgs_plus_jet_13tev_m2_10.pth
kappab=-2.0
kappac=10.0
muR=1.0
muF=1.0
Q=1.0
binBoundaries=0.0,5.0,10.0,15.0,20.0,25.0,30.0,35.0,40.0,45.0,50.0,55.0,60.0,65.0,70.0,75.0,80.0,85.0,90.0,95.0,100.0,105.0,110.0,115.0,120.0
binCenters=3.0,7.5,12.5,17.5,22.5,27.5,32.5,37.5,42.5,47.5,52.5,57.5,62.5,67.5,72.5,77.5,82.5,87.5,92.5,97.5,102.5,107.5,112.5,117.5
crosssection=0.0,0.16307622349727835,0.4270588124347403,0.49171001133989767,0.2999654778354278,0.19126460843477733,0.13565325199203226,0.09378311064452027,0.07279080521746595,0.055404116581569185,0.042634040099289935,0.033335308010222296,0.029497733444523444,0.01852362805888441,0.01818967400784181,0.014006846652176228,0.011018891056924617,0.010353864415473714,0.008689636291324243,0.007448211857641814,0.006884230845303874,0.00486660216520193,0.004269554037757046,0.003385914769906451
crosssection_integrated=0.0,0.8153811174863917,2.1352940621737018,2.4585500566994885,1.4998273891771392,0.9563230421738866,0.6782662599601613,0.46891555322260137,0.36395402608732974,0.2770205829078459,0.2131702004964497,0.1666765400511115,0.14748866722261722,0.09261814029442206,0.09094837003920905,0.07003423326088114,0.05509445528462309,0.05176932207736857,0.043448181456621215,0.03724105928820907,0.03442115422651937,0.024333010826009648,0.02134777018878523,0.016929573849532253
ratios=0.0,14.859363199211234,23.56876570990576,12.955385661471565,13.296954632111927,12.142520865221432,10.87681072683418,10.746034397270742,11.629159226344433,12.153858975465335,12.995654281274733,11.42389918657923,17.616817029976502,8.352036925288289,15.83634905623016,15.098284373283775,8.342258702469111,10.188638855412883,12.38058218965471,16.12020299740366,14.085010444916863,10.098484120395513,9.035350006336627,9.70924042157486