file=suppliedInput/fromQianying/13tev-pth_quarkInduced_Apr18/higgs_plus_jet_13tev_2_10.pth
kappab=2.0
kappac=10.0
muR=1.0
muF=1.0
Q=1.0
binBoundaries=0.0,5.0,10.0,15.0,20.0,25.0,30.0,35.0,40.0,45.0,50.0,55.0,60.0,65.0,70.0,75.0,80.0,85.0,90.0,95.0,100.0,105.0,110.0,115.0,120.0
binCenters=3.0,7.5,12.5,17.5,22.5,27.5,32.5,37.5,42.5,47.5,52.5,57.5,62.5,67.5,72.5,77.5,82.5,87.5,92.5,97.5,102.5,107.5,112.5,117.5
crosssection=0.0,0.1600479849109494,0.4382672536411112,0.4960035604798184,0.2977491743188455,0.19020092716935966,0.1408751174694839,0.09449700153061469,0.07296769717730278,0.055562816658350944,0.040809381818057086,0.03293068948314567,0.027656809586149134,0.01883418208757559,0.017219440305629875,0.012582250106811526,0.011969824871617792,0.011201686395449427,0.008951525786321524,0.006746369745162584,0.007150951212322232,0.0049495877626337705,0.004464545039036434,0.0034755384952577678
crosssection_integrated=0.0,0.800239924554747,2.191336268205556,2.480017802399092,1.4887458715942277,0.9510046358467983,0.7043755873474195,0.47248500765307344,0.3648384858865139,0.2778140832917547,0.20404690909028544,0.16465344741572835,0.13828404793074567,0.09417091043787795,0.08609720152814937,0.06291125053405763,0.059849124358088965,0.056008431977247135,0.04475762893160762,0.03373184872581292,0.03575475606161116,0.024747938813168852,0.02232272519518217,0.01737769247628884
ratios=0.0,14.583432741397568,24.187343566337603,13.06851043762281,13.198709702316528,12.074992575147403,11.29550501985833,10.827834797845501,11.657419729311215,12.18867260433642,12.439464247462714,11.285237763054116,16.517369208329725,8.492061261054506,14.991641252905998,13.562680800742905,9.062198290773779,11.022931407548686,12.753709937320993,14.601202525675149,14.63071543938089,10.270684088553832,9.447995432314382,9.966239890270042