file=suppliedInput/fromQianying/13tev-pth_quarkInduced_Apr18/higgs_plus_jet_13tev_0_10.pth
kappab=0.0
kappac=10.0
muR=1.0
muF=1.0
Q=1.0
binBoundaries=0.0,5.0,10.0,15.0,20.0,25.0,30.0,35.0,40.0,45.0,50.0,55.0,60.0,65.0,70.0,75.0,80.0,85.0,90.0,95.0,100.0,105.0,110.0,115.0,120.0
binCenters=3.0,7.5,12.5,17.5,22.5,27.5,32.5,37.5,42.5,47.5,52.5,57.5,62.5,67.5,72.5,77.5,82.5,87.5,92.5,97.5,102.5,107.5,112.5,117.5
crosssection=0.0,0.12452381311137295,0.35307428924901996,0.3716725413204859,0.2205115909893819,0.13905416602762943,0.09982276307557647,0.06749978852593419,0.05268091201947711,0.03937322478315186,0.0292649852478224,0.02358550854955971,0.02038889109791242,0.01327693921303641,0.012475038164853333,0.009455132347224332,0.008067037793698845,0.007611416339463229,0.006211663444203985,0.004948952793670719,0.004876890897752562,0.003292072987586823,0.002959983117969469,0.002311336118360857
crosssection_integrated=0.0,0.6226190655568647,1.7653714462450998,1.8583627066024295,1.1025579549469096,0.6952708301381472,0.49911381537788235,0.33749894262967095,0.26340456009738555,0.1968661239157593,0.146324926239112,0.11792754274779854,0.1019444554895621,0.06638469606518205,0.062375190824266666,0.04727566173612166,0.04033518896849422,0.03805708169731615,0.031058317221019927,0.024744763968353595,0.024384454488762808,0.016460364937934117,0.014799915589847345,0.011556680591804284
ratios=0.0,11.346501202264314,19.48566557860992,9.79268471566183,9.774900239851297,8.827917125934126,8.003887000559558,7.734388892874414,8.416375011009517,8.637203351472897,8.92051585872668,8.08267533786546,12.17677841558795,5.986380541089662,10.861055496829684,10.191892615833499,6.107449097188384,7.489954392785185,8.850083850140226,10.711043829491523,9.9780296124763,6.8312439890901,6.263999295287433,6.627844938003325