# Generated on 22-11-03 09:00:54 by differentials/theory/scalecorrelation.py; current git commit: fda3df8 bunch of additions for debugging
# Uncertainties in pb (*not* pb/GeV)
# Up        Down
+3.84348161 +4.05923104
+0.00094382 +0.00178816
+0.00039074 +0.00058492
