file=suppliedInput/fromAgnieszka/ScaleVarNNLO_Jul17/HRes_mR1mF1Qh.top
ct=1.0
cg=0.0
cb=1.0
muR=1.0
muF=1.0
Q=0.5
binBoundaries=1.0,6.0,11.0,16.0,21.0,26.0,31.0,36.0,41.0,46.0,51,60.0,70.0,80.0,90.0,100.0,110.0,120.0,130.0,140.0,150.0,160.0,170.0,180.0,190.0,200.0,210.0,220.0,230.0,240.0,250.0,260.0,270.0,280.0,290.0,300.0,310.0,320.0,330.0,340.0,350.0,360.0,370.0,380.0,390.0,400.0,410.0,420.0,430.0,440.0,450.0,460.0,470.0,480.0,490.0,500.0,510.0,520.0,530.0,540.0,550.0,560.0,570.0,580.0,590.0,600.0,610.0,620.0,630.0,640.0,650.0,660.0,670.0,680.0,690.0,700.0,710.0,720.0,730.0,740.0,750.0,760.0,770.0,780.0,790.0,800.0
binCenters=3.5,8.5,13.5,18.5,23.5,28.5,33.5,38.5,43.5,48.5,55.0,65.0,75.0,85.0,95.0,105.0,115.0,125.0,135.0,145.0,155.0,165.0,175.0,185.0,195.0,205.0,215.0,225.0,235.0,245.0,255.0,265.0,275.0,285.0,295.0,305.0,315.0,325.0,335.0,345.0,355.0,365.0,375.0,385.0,395.0,405.0,415.0,425.0,435.0,445.0,455.0,465.0,475.0,485.0,495.0,505.0,515.0,525.0,535.0,545.0,555.0,565.0,575.0,585.0,595.0,605.0,615.0,625.0,635.0,645.0,655.0,665.0,675.0,685.0,695.0,705.0,715.0,725.0,735.0,745.0,755.0,765.0,775.0,785.0,795.0
crosssection=0.416508810573,0.932942731278,0.9910969163,0.860925110132,0.76904845815,0.600519823789,0.537317180617,0.439607048458,0.368539647577,0.304796035242,0.255744493392,0.190017621145,0.138274008811,0.101939207048,0.0806251101322,0.0657083700441,0.0508233480176,0.0408987665198,0.0328237004405,0.0270764317181,0.0210660352423,0.0179966960352,0.0147658590308,0.0123743612335,0.0104267400881,0.0083818061674,0.00744026431718,0.00605616740088,0.00519916299559,0.00452863436123,0.00371063436123,0.0033832246696,0.00241223788546,0.00255811013216,0.00206436123348,0.00173875770925,0.00144478854626,0.00144186343612,0.00114591629956,0.000966259911894,0.000944651982379,0.00078054185022,0.000641387665198,0.000626321585903,0.00284517180617,-0.0018630660793,0.000457215859031,0.000306450220264,0.000402201321586,0.000300228634361,0.00027532907489,0.00024746123348,0.000223136563877,0.000177552422907,0.000188282819383,0.000144373568282,0.000160315859031,0.000123677092511,0.000120492070485,9.08801762115e-05,7.84317180617e-05,9.50343612335e-05,8.98215859031e-05,7.6695154185e-05,7.08171806167e-05,5.96127753304e-05,4.76083700441e-05,5.96339207048e-05,4.92414096916e-05,3.67562114537e-05,4.46616740088e-05,3.38351982379e-05,3.86131277533e-05,3.24920264317e-05,2.62970044053e-05,1.74231718062e-05,3.01951982379e-05,2.00042290749e-05,1.97998678414e-05,2.17651101322e-05,1.70697797357e-05,1.36654185022e-05,1.93059030837e-05,1.25571365639e-05,1.43884140969e-05
crosssection_integrated=2.08254405286,4.66471365639,4.9554845815,4.30462555066,3.84524229075,3.00259911894,2.68658590308,2.19803524229,1.84269823789,1.52398017621,2.30170044053,1.90017621145,1.38274008811,1.01939207048,0.806251101322,0.657083700441,0.508233480176,0.408987665198,0.328237004405,0.270764317181,0.210660352423,0.179966960352,0.147658590308,0.123743612335,0.104267400881,0.083818061674,0.0744026431718,0.0605616740088,0.0519916299559,0.0452863436123,0.0371063436123,0.033832246696,0.0241223788546,0.0255811013216,0.0206436123348,0.0173875770925,0.0144478854626,0.0144186343612,0.0114591629956,0.00966259911894,0.00944651982379,0.0078054185022,0.00641387665198,0.00626321585903,0.0284517180617,-0.018630660793,0.00457215859031,0.00306450220264,0.00402201321586,0.00300228634361,0.0027532907489,0.0024746123348,0.00223136563877,0.00177552422907,0.00188282819383,0.00144373568282,0.00160315859031,0.00123677092511,0.00120492070485,0.000908801762115,0.000784317180617,0.000950343612335,0.000898215859031,0.00076695154185,0.000708171806167,0.000596127753304,0.000476083700441,0.000596339207048,0.000492414096916,0.000367562114537,0.000446616740088,0.000338351982379,0.000386131277533,0.000324920264317,0.000262970044053,0.000174231718062,0.000301951982379,0.000200042290749,0.000197998678414,0.000217651101322,0.000170697797357,0.000136654185022,0.000193059030837,0.000125571365639,0.000143884140969
ratios=0.878873933332,0.999372378027,1.02459251568,0.98448936824,1.04020211289,0.940039858495,1.09406731011,0.951376190522,0.950432564771,1.00276530155,0.983851041149,0.989232515738,0.991928857652,0.963283962335,1.00729802469,0.993380041558,1.0186568482,1.05400336499,1.01989282268,1.04880075627,1.00207036301,1.00770346471,0.983261511744,1.00562423253,1.01314116695,0.960570889099,1.02982890453,1.05903152251,0.949485116653,1.02877260823,0.973155765878,0.918668299872,1.05715140692,1.12398260287,0.978715583301,0.996754911196,0.911523314277,1.1151378663,0.939051861693,1.03113996531,1.06355457242,0.908151079174,1.03853259435,1.0103684016,4.9249199329,-5.12467676618,0.994280787469,0.794527275676,1.17937698205,0.917975795209,1.05831961745,1.02352289519,1.20903698576,0.799876161728,1.11815089996,0.965254399529,0.899871417621,1.23643866626,1.06728761906,0.930385055968,0.682041066503,1.23223853316,1.01756198347,0.99463541994,1.27078046814,0.859170042285,0.906833705338,1.24034708351,0.934895702648,0.984448060108,1.21539874315,0.832259497649,1.07199002024,0.968650189115,1.09174872343,0.543284935233,1.44873436985,0.93518711115,1.16779386661,0.955608981488,1.08462677501,0.782930769037,1.19200765942,1.06019816858,1.15014085499