file=suppliedInput/fromAgnieszka/HRes_SMEFT_May16/ratio_cg005ct14sw_new
ct=1.4
cg=-0.05
cb=-3.67
muR=1.0
muF=1.0
Q=1.0
binBoundaries=1.0,6.0,11.0,16.0,21.0,26.0,31.0,36.0,41.0,46.0,51,60.0,70.0,80.0,90.0,100.0,110.0,120.0,130.0,140.0,150.0,160.0,170.0,180.0,190.0,200.0,210.0,220.0,230.0,240.0,250.0,260.0,270.0,280.0,290.0,300.0,310.0,320.0,330.0,340.0,350.0,360.0,370.0,380.0,390.0,400.0,410.0,420.0,430.0,440.0,450.0,460.0,470.0,480.0,490.0,500.0,510.0,520.0,530.0,540.0,550.0,560.0,570.0,580.0,590.0,600.0,610.0,620.0,630.0,640.0,650.0,660.0,670.0,680.0,690.0,700.0,710.0,720.0,730.0,740.0,750.0,760.0,770.0,780.0,790.0,800.0
binCenters=3.5,8.5,13.5,18.5,23.5,28.5,33.5,38.5,43.5,48.5,55.0,65.0,75.0,85.0,95.0,105.0,115.0,125.0,135.0,145.0,155.0,165.0,175.0,185.0,195.0,205.0,215.0,225.0,235.0,245.0,255.0,265.0,275.0,285.0,295.0,305.0,315.0,325.0,335.0,345.0,355.0,365.0,375.0,385.0,395.0,405.0,415.0,425.0,435.0,445.0,455.0,465.0,475.0,485.0,495.0,505.0,515.0,525.0,535.0,545.0,555.0,565.0,575.0,585.0,595.0,605.0,615.0,625.0,635.0,645.0,655.0,665.0,675.0,685.0,695.0,705.0,715.0,725.0,735.0,745.0,755.0,765.0,775.0,785.0,795.0
crosssection=0.740835186132,1.33382384572,1.26491626702,1.0686850071,0.853486796141,0.701190877374,0.513879359013,0.46221323509,0.372307136541,0.28035615791,0.227381399525,0.156090989733,0.105526248233,0.0749654198996,0.0533999195442,0.0418945026314,0.0302477505727,0.0227868522195,0.0185025616768,0.0147239178482,0.0119367359184,0.0100716620338,0.00841213867427,0.00685805209053,0.00569994605507,0.00479695665223,0.00391895663151,0.00306343357862,0.00289353607636,0.00229260882167,0.00195129061521,0.00185264243339,0.00112547220492,0.00109976616814,0.000998243838186,0.000807839045424,0.000716829788771,0.000570980168283,0.000525946533066,0.000393277811627,0.000362595406035,0.00034142967701,0.000238810232168,0.000232704177503,0.000210603522349,0.000128560394827,0.000157667487863,0.000128157235258,0.000109727895601,0.000102172002643,7.86583302855e-05,7.0557795496e-05,5.21184190154e-05,6.06078759462e-05,4.44793772453e-05,3.82119184031e-05,4.42265388929e-05,2.39957464639e-05,2.62533437045e-05,2.20188048411e-05,2.51217459618e-05,1.6377554276e-05,1.82718490255e-05,1.55343666809e-05,1.10067386978e-05,1.33819111163e-05,9.92441172335e-06,8.9486429022e-06,9.67200398148e-06,6.78341273226e-06,6.62145339778e-06,7.29543190044e-06,6.45580045551e-06,6.03559161704e-06,4.36747165544e-06,5.87270922701e-06,3.864158637e-06,4.03027740205e-06,3.26352524256e-06,4.49104264839e-06,3.18820025319e-06,3.64535308635e-06,3.49431361233e-06,2.64423605575e-06,2.89888118415e-06
crosssection_integrated=3.70417593066,6.66911922859,6.32458133511,5.34342503551,4.2674339807,3.50595438687,2.56939679507,2.31106617545,1.86153568271,1.40178078955,2.04643259573,1.56090989733,1.05526248233,0.749654198996,0.533999195442,0.418945026314,0.302477505727,0.227868522195,0.185025616768,0.147239178482,0.119367359184,0.100716620338,0.0841213867427,0.0685805209053,0.0569994605507,0.0479695665223,0.0391895663151,0.0306343357862,0.0289353607636,0.0229260882167,0.0195129061521,0.0185264243339,0.0112547220492,0.0109976616814,0.00998243838186,0.00807839045424,0.00716829788771,0.00570980168283,0.00525946533066,0.00393277811627,0.00362595406035,0.0034142967701,0.00238810232168,0.00232704177503,0.00210603522349,0.00128560394827,0.00157667487863,0.00128157235258,0.00109727895601,0.00102172002643,0.000786583302855,0.00070557795496,0.000521184190154,0.000606078759462,0.000444793772453,0.000382119184031,0.000442265388929,0.000239957464639,0.000262533437045,0.000220188048411,0.000251217459618,0.00016377554276,0.000182718490255,0.000155343666809,0.000110067386978,0.000133819111163,9.92441172335e-05,8.9486429022e-05,9.67200398148e-05,6.78341273226e-05,6.62145339778e-05,7.29543190044e-05,6.45580045551e-05,6.03559161704e-05,4.36747165544e-05,5.87270922701e-05,3.864158637e-05,4.03027740205e-05,3.26352524256e-05,4.49104264839e-05,3.18820025319e-05,3.64535308635e-05,3.49431361233e-05,2.64423605575e-05,2.89888118415e-05
ratios=1.563234,1.428798,1.307666,1.222068,1.154412,1.097628,1.046344,1.0002994,0.9601486,0.9223592,0.874738,0.812610333333,0.757008,0.708392666667,0.667157333333,0.633361666667,0.606258333333,0.587240666667,0.574908666667,0.570328333333,0.567807333333,0.563950666667,0.560166,0.557331666667,0.55385,0.549740333333,0.542434333333,0.535697333333,0.528425333333,0.520813333333,0.511748,0.503059666667,0.493232666667,0.483215333333,0.473268333333,0.463099333333,0.452251,0.441596333333,0.431001,0.419684666667,0.408235,0.397249333333,0.386680666667,0.375393333333,0.364549333333,0.353627,0.342870333333,0.332270666667,0.321755666667,0.3124,0.302349666667,0.291833666667,0.282397,0.273039333333,0.264148666667,0.255477666667,0.248248666667,0.239893,0.232545333333,0.225417333333,0.218458333333,0.212355333333,0.206996333333,0.201460333333,0.197510666667,0.192867,0.189038,0.186126,0.183632333333,0.181681333333,0.180192666667,0.179449,0.179228,0.179932666667,0.181320333333,0.183121333333,0.185398333333,0.188413333333,0.192482333333,0.197181666667,0.202580666667,0.208852666667,0.21575,0.223252666667,0.231722666667