# Generated on 22-10-21 09:17:16 by differentials/theory/scalecorrelation.py; current git commit: fda3df8 bunch of additions for debugging
# Uncertainties in pb (*not* pb/GeV)
# Up        Down
+0.92760527 +1.37158163
+1.64719507 +1.50755646
+0.70510653 +0.64160733
