[[9.21178115e-05 2.74173372e-04 4.32048928e-04 6.15876051e-04
  7.21999753e-04 9.35770009e-04 1.05622663e-03 1.11393102e-03
  1.41835258e-03 1.41682956e-03 1.45545615e-03 1.22471898e-03
  1.02825566e-03 7.80669502e-04 4.53346173e-03 3.29752660e-04
  1.73133119e-04 9.90643299e-05 5.68168652e-05 3.45452745e-05
  2.13963223e-05 1.06849809e-05 1.00964470e-05 4.43334474e-06
  3.37022497e-06 4.39068460e-06 2.55604957e-06 1.23308084e-06
  3.83309403e-07]
 [5.80161925e-05 1.77916220e-04 2.78026655e-04 4.02337396e-04
  4.70655706e-04 6.10087888e-04 7.06757396e-04 7.10777640e-04
  9.04955020e-04 8.93304196e-04 9.24379293e-04 7.71798873e-04
  6.46883718e-04 4.91162017e-04 7.18737334e-03 2.07018613e-04
  1.09307196e-04 6.26601244e-05 3.64524354e-05 2.19459510e-05
  1.37441306e-05 6.92992239e-06 7.99225854e-06 3.39765868e-06
  1.84714325e-06 4.11307283e-06 2.56425014e-06 6.89329217e-07
  1.88603365e-07]]