[[9.21178115e-05 2.74173372e-04 4.32048928e-04 6.15876051e-04
  7.21999753e-04 9.35770009e-04 1.05622663e-03 1.11393102e-03
  1.41835258e-03 1.41682956e-03 1.45545615e-03 1.22471898e-03
  1.02825566e-03 7.80669502e-04 4.53346173e-03 3.29752660e-04
  1.35913378e-04 4.56805172e-05 2.76804151e-05]
 [5.80161925e-05 1.77916220e-04 2.78026655e-04 4.02337396e-04
  4.70655706e-04 6.10087888e-04 7.06757396e-04 7.10777640e-04
  9.04955020e-04 8.93304196e-04 9.24379293e-04 7.71798873e-04
  6.46883718e-04 4.91162017e-04 7.18737334e-03 2.07018613e-04
  8.59831499e-05 2.91967785e-05 1.83343295e-05]]